{
	"label": "專長",
	"entries": [
		{
			"id": "Extra Rogue Talent",
			"name": "額外盜賊天賦（Extra Rogue Talent）",
			"description": "<i>&emsp;&emsp;通過不斷練習，你習得了一種新的技法。</i><hr><p>&emsp;&emsp;<strong>先決條件：</strong>【盜賊天賦】職業特性。</p><p>&emsp;&emsp;<strong>專長效果：</strong>你獲得一個【盜賊天賦】。你必須滿足這個盜賊天賦的全部先決條件才能選取。</p>\n<p>&emsp;&emsp;<strong>特殊說明：</strong>你能夠多次選擇本專長。</p>"
		},
		{
			"id": "Medusa's Wrath",
			"name": "萬蛇出洞（Medusa's Wrath）",
			"description": "<i>&emsp;&emsp;你的連續攻擊令對手眼花繚亂。</i><hr><p>&emsp;&emsp;<strong>先決條件：</strong>精通徒手打擊，蛇形拳，蝎形拳，基本攻擊加值+11。</p><p>&emsp;&emsp;<strong>專長效果：</strong>每當你進行全力攻擊並做出至少一次徒手擊打攻擊時，你可以額外以最高BAB做出兩次徒手擊打攻擊。這些額外攻擊必須針對暈眩、措手不及、麻痺、恍惚、震懾或昏迷狀態的敵人。</p>"
		},
		{
			"id": "Improvised Weapon Mastery",
			"name": "臨時武器熟稔（Improvised Weapon Mastery）",
			"description": "<i>&emsp;&emsp;你可以把手邊的任何東西轉變為致命的武器，從尖利的椅子腿到裝滿麵粉的袋子。</i><hr>\n<p>&emsp;&emsp;<strong>先決條件：</strong>隨手武器或隨手投擲，基本攻擊加值+8。</p>\n<p>&emsp;&emsp;<strong>專長效果：</strong>你在使用臨時武器時不受任何減值。臨時武器的傷害骰上升一個級別（例如1d4變為1d6）但最高僅到d8（雙手臨時武器則最高為2d6）。臨時武器重擊範圍為19-20，重擊倍率×2。</p>"
		},
		{
			"id": "Toughness",
			"name": "健壯（Toughness）",
			"description": "<i>&emsp;&emsp;你比一般人更健壯。</i><hr><p>&emsp;&emsp;專長效果：你的HP增加3點，且你的生命骰每比3HD高1級便額外獲得1點HP。由生命骰高於3開始，每次你獲得一個新的生命骰（例如當你獲得一個新的等級）時你都額外獲得1點HP。</p>"
		},
		{
			"id": "Elemental Channel",
			"name": "元素導能（Elemental Channel）",
			"description": "<i>&emsp;&emsp;選擇一種元素類型，例如氣、土、火或者水。你能夠引導你的神聖能量傷害或治療你所選擇的元素類型的異界生物。</i><hr>\n<p>&emsp;&emsp;<strong>先決條件：</strong>【引導能量】職業特性。</p>\n<p>&emsp;&emsp;<strong>專長效果：</strong>作為普通效果的替代，你可以選擇在引導能量時治療或傷害你所決定的元素類型的異界生物。你必須在每次引導能量時做出選擇。若你選擇治療或傷害特定元素類型的生物，則你的引導能量對其他生物不產生任何效果。除此之外，治療或造成的傷害點數及令傷害減半的豁免DC均保持不變。</p>\n<p>&emsp;&emsp;<strong>特殊說明：</strong>你可以多次選擇本專長，其效果並不累加。每次你都必須選擇一個新的元素類型。</p>"
		},
		{
			"id": "Craft Wondrous Item",
			"name": "製造奇物（Craft Wondrous Item）",
			"description": "<i>&emsp;&emsp;你能製造奇物，一種魔法物品。</i><hr>\n<p>&emsp;&emsp;<strong>先決條件：</strong>施法者等級3級。</p>\n<p>&emsp;&emsp;<strong>專長效果：</strong>你能製造多種魔法奇物。奇物的每1000gp基本價格將使製造時間延長1天。加工所需耗材的價值為成品價格的一半。更多信息請參見魔法物品規則。你還能修理那些損壞的奇物。修理耗費一半製造該物品所需的原料和時間。</p>"
		},
		{
			"id": "Craft Rod",
			"name": "製造權杖（Craft Rod）",
			"description": "<i>&emsp;&emsp;你能製造魔法權杖。</i><hr>\n<p>&emsp;&emsp;<strong>先決條件：</strong>施法者等級9級。</p>\n<p>&emsp;&emsp;<strong>專長效果：</strong>你能製造魔法權杖。權杖的每1000gp基本價格將使製造時間延長1天。加工所需耗材的價值為成品價格的一半。更多信息請參見魔法物品規則。</p>"
		},
		{
			"id": "Craft Staff",
			"name": "製造法杖（Craft Staff）",
			"description": "<i>&emsp;&emsp;你能製造法杖。</i><hr>\n<p>&emsp;&emsp;<strong>先決條件：</strong>施法者等級11級。</p>\n<p>&emsp;&emsp;<strong>專長效果：</strong>你能製造法杖。法杖的每1000gp基本價格將使製造時間延長1天。加工所需耗材的價值為成品價格的一半。新製造的法杖擁有10發充能。更多信息請參見魔法物品規則。</p>"
		},
		{
			"id": "Craft Wand",
			"name": "製造魔杖（Craft Wand）",
			"description": "<i>&emsp;&emsp;你能製造魔杖。</i><hr>\n<p>&emsp;&emsp;<strong>先決條件：</strong>施法者等級5級。</p>\n<p>&emsp;&emsp;<strong>專長效果：</strong>你能製造任何你知道的4環或以下法術的魔杖。法杖的每1000gp基本價格將使製造時間延長1天。加工所需耗材的價值為成品價格的一半。新的魔杖擁有50發充能。更多信息請參見魔法物品規則。</p>"
		},
		{
			"id": "Craft Magic Arms and Armor",
			"name": "製造魔法武器和防具（Craft Magic Arms and Armor）",
			"description": "<i>&emsp;&emsp;你能製造魔法盔甲，盾牌和武器。</i><hr>\n<p>&emsp;&emsp;<strong>先決條件：</strong>施法者等級5級。</p>\n<p>&emsp;&emsp;<strong>專長效果：</strong>你能製造魔法盔甲，盾牌和武器。為一件武器、一套盔甲或盾牌附魔需要的時間為：附加的魔法特性的價格每增加1000gp，工期增加1天。加工所需耗材的價格為成品價格的一半。更多信息請參見魔法物品規則。將被附魔的武器、盔甲或盾牌必須為精製品，其成本不在上述之列。你還可以修理損壞的武器、盔甲或盾牌，只要你能製造它。修理耗費一半製造該物品所需的原料和時間。</p>"
		},
		{
			"id": "Exhausting Critical",
			"name": "力竭重擊（Exhausting Critical）",
			"description": "<i>&emsp;&emsp;你的重擊令命中的敵人陷入力竭。</i><hr>\n<p>&emsp;&emsp;<strong>先決條件：</strong>重擊專攻，疲乏重擊，基本攻擊加值+15。</p>\n<p>&emsp;&emsp;<strong>專長效果：</strong>每當你對一個敵人成功造成重擊時，該生物立即陷入力竭狀態。本專長對已經力竭的生物無效。</p>\n<p>&emsp;&emsp;<strong>特殊說明：</strong>在沒有掌握“重擊熟稔”專長前，每次重擊時你只能選擇一種重擊專長效果。</p>"
		},
		{
			"id": "Animal Affinity",
			"name": "動物親和（Animal Affinity）",
			"description": "<i>&emsp;&emsp;你對於與動物以及坐騎的工作頗有心得。</i><hr>\n<p>&emsp;&emsp;<strong>專長效果：</strong>在馴養動物和騎乘技能檢定上獲得+2獎勵。如果某技能受訓等級10以上，對於該技能檢定的獎勵為+4。</p>"
		},
		{
			"id": "Quick Draw",
			"name": "即時備戰（Quick Draw）",
			"description": "<i>&emsp;&emsp;你能夠比大多數人更快的拔出武器。</i><hr>\n<p>&emsp;&emsp;<strong>先決條件：</strong>基本攻擊加值+1。</p>\n<p>&emsp;&emsp;<strong>專長效果：</strong>你能夠以自由動作而不是移動動作拔出一把武器。你能夠以移動動作拔出一把隱藏的武器（見巧手技能）。選擇此專長的人物能以他的正常攻擊頻率投擲武器（如同使用弓的人物一樣）。煉金物品、藥水、卷軸和魔杖不能用此專長快速拿取。</p>\n<p>&emsp;&emsp;<strong>通常情況：</strong>沒有此專長，你拔出一把武器是移動動作，或做為移動一部分的自由動作（如果你的BAB+1以上）。沒有此專長，你拔出一把隱藏的武器是標準動作。</p>"
		},
		{
			"id": "Two-Weapon Rend",
			"name": "雙武器撕裂（Two-Weapon Rend）",
			"description": "<i>&emsp;&emsp;同時以兩把武器攻擊命中時，你可以造成嚴重的傷口。</i><hr>\n<p>&emsp;&emsp;<strong>先決條件：</strong>敏捷17，雙重切割，精通雙武器格鬥，基本攻擊加值+11。</p>\n<p>&emsp;&emsp;<strong>專長效果：</strong>若你主手武器和副手武器的攻擊都命中對手，則你額外造成“1d10+1.5倍力量修正”的傷害。每輪你僅可造成此額外傷害1次。</p>"
		},
		{
			"id": "Two-Weapon Fighting",
			"name": "雙武器格鬥（Two-Weapon Fighting）",
			"description": "<i>&emsp;&emsp;你可以用雙武器進行戰鬥，每輪可用副手武器進行一次額外攻擊。</i><hr>\n<p>&emsp;&emsp;<strong>先決條件：</strong>敏捷15。</p>\n<p>&emsp;&emsp;<strong>專長效果：</strong>當你使用雙武器攻擊，主手的攻擊檢定減值減少2，副手則減少6。參見雙武器戰鬥規則。</p>\n<p>&emsp;&emsp;<strong>通常情況：</strong>若你用副手持有第二把武器，你可以每輪用該武器做出一次額外攻擊。當你如此做時你的主手正常攻擊（一次或多次）受-6減值，副手受-10減值。若你副手武器為輕型武器，則雙手減值均減少2。徒手攻擊視同輕型武器。</p>"
		},
		{
			"id": "Two-Weapon Defense",
			"name": "雙武器防禦（Two-Weapon Defense）",
			"description": "<i>&emsp;&emsp;你的雙武器戰鬥風格可攻可守。</i><hr>\n<p>&emsp;&emsp;<strong>先決條件：</strong>敏捷15，雙武器格鬥。</p>\n<p>&emsp;&emsp;<strong>專長效果：</strong>使用雙頭武器或雙武器時（不包含天生武器或徒手擊打），AC獲得+1盾牌加值。當你使用防禦式戰鬥或全防禦時，此盾牌加值增為+2。</p>"
		},
		{
			"id": "Double Slice",
			"name": "雙重切割（Double Slice）",
			"description": "<i>&emsp;&emsp;你的副手武器在雙持武器攻擊時更加強力。</i><hr>\n<p>&emsp;&emsp;<strong>先決條件：</strong>敏捷15，雙武器格鬥。</p>\n<p>&emsp;&emsp;<strong>專長效果：</strong>通常你在副手武器上只能將力量修正的一半計入傷害投骰。</p>\n<p>&emsp;&emsp;<strong>通常情況：</strong>通常你在副手武器上只能將力量修正的一半計入傷害投骰。</p>"
		},
		{
			"id": "Command Undead",
			"name": "命令死靈（Command Undead）",
			"description": "<i>&emsp;&emsp;使用靈魂之力，驅役不死生物為你服務。</i><hr>\n<p>&emsp;&emsp;<strong>先決條件：</strong>【引導負能量】職業特性。</p>\n<p>&emsp;&emsp;<strong>專長效果：</strong>以一個標準動作，你可以使用一次引導負能量來命令30尺內的不死生物。不死生物能以意志豁免來抵抗此效果，DC為“10+1/2你的牧師等級+魅力修正”，成功則不受影響。豁免失敗的不死生物為你所控制，如同‘命令死靈’法術的效果一樣。有智力的不死生物可以每天做一次豁免來抵抗你的命令。你可以控制任意數量的不死生物，只要它們總的HD不超過你的牧師等級。若你以此種方式使用引導能量，它將不會再造成其它效果（即不會治療或傷害周邊的生物）。若不死生物已經為其它生物所支配，當你們的命令相沖突時，你必須以魅力檢定進行對抗。</p>"
		},
		{
			"id": "Strike Back",
			"name": "回擊（Strike Back）",
			"description": "<i>&emsp;&emsp;當他們攻向你時，通過瞄準他們的肢體或武器，你能夠擊打使用長觸及攻擊你的敵人。</i><hr>\n<p>&emsp;&emsp;<strong>先決條件：</strong>基本攻擊加值+11。</p>\n<p>&emsp;&emsp;<strong>專長效果：</strong>你可以做一個準備動作來對以近戰攻擊你的任何敵人做一次近戰攻擊，即使該敵人在你的觸及外。</p>"
		},
		{
			"id": "Endurance",
			"name": "堅忍（Endurance）",
			"description": "<i>&emsp;&emsp;嚴酷的環境或者長時間的竭盡全力不會輕易令你陷入疲勞。</i><hr>\n<p>&emsp;&emsp;<strong>專長效果：</strong>本專長可使以下檢定獲得+4加值：游泳時疲勞造成非致命傷害的技能檢定、持續跑步時的體質檢定、強行軍造成非致命傷害的體質檢定、憋氣時的體質檢定、饑餓或口渴造成非致命傷害的體質檢定、冷熱環境造成非致命傷害的強韌檢定、窒息造成非致命傷害的強韌檢定。此外，擁有本項專長者穿著輕型或中型盔甲睡覺也不會陷入疲乏狀態。</p>\n<p>&emsp;&emsp;<strong>通常情況：</strong>沒有本專長者若穿著中型以上的盔甲睡覺，隔天將自動陷入疲乏狀態。</p>"
		},
		{
			"id": "Augment Summoning",
			"name": "增強召喚（Augment Summoning）",
			"description": "<i>&emsp;&emsp;你的召喚生物將更加強健有力。</i><hr>\n<p>&emsp;&emsp;<strong>先決條件：</strong>法術專攻（咒法）。</p>\n<p>&emsp;&emsp;<strong>專長效果：</strong>你用召喚法術召喚的任何生物獲得力量和體質的+4增強加值。</p>"
		},
		{
			"id": "Manyshot",
			"name": "多重射擊（Manyshot）",
			"description": "<i>&emsp;&emsp;你可對一個目標同時發射數箭。</i><hr>\n<p>&emsp;&emsp;<strong>先決條件：</strong>敏捷17，近距射擊，快速射擊，基本攻擊加值+6。</p>\n<p>&emsp;&emsp;<strong>專長效果：</strong>當以弓箭做出全力攻擊動作時，你的第一擊射出兩支箭。若攻擊檢定成功，則兩支箭均命中。基於精準攻擊的傷害（例如偷襲）和重擊傷害在該次攻擊中僅計算一次。使用複合長弓時的力量修正，以及其他傷害加值例如游俠的【宿敵】加值，均在每只箭上正常生效。對抗每箭的傷害減免與其他抗力都要分別計算。</p>"
		},
		{
			"id": "Great Cleave",
			"name": "大順勢斬（Great Cleave）",
			"description": "<i>&emsp;&emsp;你可以在一擊中攻擊數個鄰近的敵人。</i><hr>\n<p>&emsp;&emsp;<strong>先決條件：</strong>力量13，順勢斬，猛力攻擊，基本攻擊加值+4。</p>\n<p>&emsp;&emsp;<strong>專長效果：</strong>你可以用一個標準動作，使用最高BAB對一個近戰攻擊範圍內的敵人進行一次攻擊。若命中，則你可以繼續對臨近前一個敵人的敵人進行攻擊，該敵人也同樣需在你的觸及範圍內；如此進行下去。你以此能力對每個敵人僅能攻擊1次。當你使用此專長時，你在下輪前AC受-2減值。</p>"
		},
		{
			"id": "Spirited Charge",
			"name": "奮力衝鋒（Spirited Charge）",
			"description": "<i>&emsp;&emsp;你的騎乘衝鋒攻擊能造成大量的傷害。</i><hr>\n<p>&emsp;&emsp;<strong>先決條件：</strong>騎乘1級，騎乘戰鬥，騎乘掠擊。</p>\n<p>&emsp;&emsp;<strong>專長效果：</strong>當在騎乘時使用衝鋒動作，你使用近戰武器造成雙倍傷害（持用長槍則是三倍）。</p>"
		},
		{
			"id": "Arcane Strike",
			"name": "奧術打擊（Arcane Strike）",
			"description": "<i>&emsp;&emsp;你用你的法力增強武器的魔法力量。</i><hr>\n<p>&emsp;&emsp;<strong>先決條件：</strong>奧術施法能力。</p>\n<p>&emsp;&emsp;<strong>專長效果：</strong>通過一個迅捷動作，你能將你的部分魔法能量加持到你的武器上。你的武器傷害+1，且在面對傷害減免的時候被視為魔法武器。每擁有5個CL傷害加值+1，最高可以在20級的時候達到+5。</p>"
		},
		{
			"id": "Deft Hands",
			"name": "妙手（Deft Hands）",
			"description": "<i>&emsp;&emsp;你擁有非常靈敏的雙手。</i><hr><p>&emsp;&emsp;<strong>專長效果：</strong>你的解除裝置與巧手技能檢定獲得+2加值。如果某技能受訓等級10以上，則對應加值改為+4。</p>"
		},
		{
			"id": "Intimidating Prowess",
			"name": "威逼（Intimidating Prowess）",
			"description": "<i>&emsp;&emsp;你的力量令他人恐懼。</i><hr>\n<p>&emsp;&emsp;<strong>專長效果：</strong>你的威嚇技能檢定在魅力調整之外再計入力量修正。</p>"
		},
		{
			"id": "Combat Expertise",
			"name": "寓守於攻（Combat Expertise）",
			"description": "<i>&emsp;&emsp;以精準度的代價獲得防禦的提升。</i><hr>\n<p>&emsp;&emsp;<strong>先決條件：</strong>智力13。</p>\n<p>&emsp;&emsp;<strong>專長效果：</strong>你可以選擇用近戰攻擊和戰技檢定的-1減值來換取AC的+1閃避加值。每當BAB+4，攻擊減值會再-1，AC加值也會再+1。你只能在以近戰武器進行攻擊或全力攻擊時，才能選擇使用這個專長；專長效果持續到你下輪開始。</p>"
		},
		{
			"id": "Channel Smite",
			"name": "導能打擊（Channel Smite）",
			"description": "<i>&emsp;&emsp;你能將神的力量引導到你的近戰武器中。</i><hr>\n<p>&emsp;&emsp;<strong>先決條件：</strong>引導能量能力。</p>\n<p>&emsp;&emsp;<strong>專長效果：</strong>在你進行近戰攻擊檢定之前，你能以迅捷動作選擇使用你的一種引導能量。如果你引導的是正能量並擊中一個不死生物，該生物將受到等同於你引導正能量的額外傷害。反之，對於引導負能量擊中活著的生物，造成同樣的傷害。生物可以通過意志豁免來降低一半傷害。如果你未擊中，引導的能量會消散。</p>"
		},
		{
			"id": "Great Fortitude",
			"name": "強韌加強（Great Fortitude）",
			"description": "<i>&emsp;&emsp;你對毒素、疾病和其他不適有抗性。</i><hr><p>&emsp;&emsp;專長效果：所有強韌豁免檢定獲得+2加值。</p>"
		},
		{
			"id": "Step Up",
			"name": "快步跟進（Step Up）",
			"description": "<i>&emsp;&emsp;當敵人想移開時你能夠跟上去。</i><hr>\n<p>&emsp;&emsp;<strong>先決條件：</strong>基本攻擊加值+1。</p>\n<p>&emsp;&emsp;<strong>專長效果：</strong>每當一個鄰近的敵人試圖做一個五尺快步遠離你時，你能以直覺動作也做一個五尺快步，只要你結束移動時和觸發此能力的敵人相鄰。如果你做了此種移動，你下一回合不能做五尺快步。如果你下一回合進行了移動，從你的總移動距離裡面減去5尺。</p>"
		},
		{
			"id": "Rapid Shot",
			"name": "快速射擊（Rapid Shot）",
			"description": "<i>&emsp;&emsp;你能夠進行一次額外的遠程攻擊。</i><hr>\n<p>&emsp;&emsp;<strong>先決條件：</strong>敏捷13，近距射擊。</p>\n<p>&emsp;&emsp;<strong>專長效果：</strong>使用遠程武器進行全力攻擊時，你在該輪能夠以你最高的加值多射擊一次。使用速射時，你的所有攻擊檢定承受-2減值。</p>"
		},
		{
			"id": "Fleet",
			"name": "快速移動（Fleet）",
			"description": "<i>&emsp;&emsp;你比常人要快。</i><hr>\n<p>&emsp;&emsp;<strong>專長效果：</strong>當穿著輕型或不穿盔甲時，你的基本移動速度增加5尺。當你處於中度或重度負荷時失去本專長效果。</p>\n<p>&emsp;&emsp;<strong>特殊說明：</strong>你可以多次選擇此專長，其效果累計。</p>"
		},
		{
			"id": "Rapid Reload",
			"name": "快速裝填（Rapid Reload）",
			"description": "<i>&emsp;&emsp;選擇一種弩（手弩、輕弩或重弩）。你能夠快速裝填該武器。</i><hr>\n<p>&emsp;&emsp;<strong>先決條件：</strong>武器擅長（選定類型的弩）。</p>\n<p>&emsp;&emsp;<strong>專長效果：</strong>你裝填選定類型的弩所需的時間降為自由動作（對手弩或輕弩而言）或移動動作（對重弩而言）。裝填弩仍然會觸發藉機攻擊。如果你為手弩或輕弩選擇了此專長，全力攻擊時你能像使用弓一樣進行多次射擊。</p>\n<p>&emsp;&emsp;<strong>通常情況：</strong>沒有此專長的人物裝填手弩或輕弩是移動動作，裝填重弩是整輪動作。</p>\n<p>&emsp;&emsp;<strong>特殊說明：</strong>你能夠多次選取本專長。每次你獲得此專長時，它作用於一種新類型的弩。</p>"
		},
		{
			"id": "Staggering Critical",
			"name": "恍惚重擊（Staggering Critical）",
			"description": "<i>&emsp;&emsp;你的重擊能讓對手慢下來。</i><hr>\n<p>&emsp;&emsp;<strong>先決條件：</strong>重擊專攻，基本攻擊加值+13。</p>\n<p>&emsp;&emsp;<strong>專長效果：</strong>每當你造成重擊時，你的對手陷入恍惚“1d4+1”輪。一次成功的強韌豁免將持續時間減為1輪。強韌豁免的DC等於“10+你的BAB”。此專長的效果不會疊加，額外的命中改為延長持續時間。</p>\n<p>&emsp;&emsp;<strong>特殊說明：</strong>在沒有掌握“重擊熟稔”專長前，每次重擊時你只能選擇一種重擊專長效果。</p>"
		},
		{
			"id": "Sickening Critical",
			"name": "噁心重擊（Sickening Critical）",
			"description": "<i>&emsp;&emsp;你的重擊能讓對手噁心。</i><hr>\n<p>&emsp;&emsp;<strong>先決條件：</strong>重擊專攻，基本攻擊加值+11。</p>\n<p>&emsp;&emsp;<strong>專長效果：</strong>在沒有掌握“重擊熟稔”專長前，每次重擊時你只能選擇一種重擊專長效果。</p>"
		},
		{
			"id": "Combat Reflexes",
			"name": "戰鬥反射（Combat Reflexes）",
			"description": "<i>&emsp;&emsp;你能進行額外的藉機攻擊。</i><hr>\n<p>&emsp;&emsp;<strong>專長效果：</strong>每輪你能獲得等同於敏捷修正次數的額外藉機攻擊。同樣，你在措手不及的情況下，也能進行藉機攻擊。</p>\n<p>&emsp;&emsp;<strong>通常情況：</strong>沒有這個專長的角色每輪只能進行1次藉機攻擊，並且在措手不及時不能進行藉機攻擊。</p>\n<p>&emsp;&emsp;<strong>特殊說明：</strong>此專長不能讓盜賊在一個回合中多次使用【乘勢攻擊】高級天賦的效果。</p><p>&emsp;&emsp;【速查】乘勢攻擊（Opportunist）：每輪1次，盜賊可以對剛剛被其他角色的近戰傷害到的敵人作一次藉機攻擊。該攻擊計入盜賊每輪藉機攻擊次數中。即使有“戰鬥反射”專長，盜賊也不能每輪使用此能力1次以上。</p>"
		},
		{
			"id": "Combat Casting",
			"name": "戰鬥施法（Combat Casting）",
			"description": "<i>&emsp;&emsp;你適應在受到威脅或分心的情況下施法。</i><hr>\n<p>&emsp;&emsp;<strong>專長效果：</strong>防禦式施法或被擒抱時，施展法術或類法術能力的專注檢定獲得+4加值。</p>"
		},
		{
			"id": "Disruptive",
			"name": "擾法者（Disruptive）",
			"description": "<i>&emsp;&emsp;你受過專門的訓練，令靠近你的敵人的施法者難以安全施展法術。</i><hr>\n<p>&emsp;&emsp;<strong>先決條件：</strong>戰士6級。</p>\n<p>&emsp;&emsp;<strong>專長效果：</strong>所有你威脅範圍內的敵人進行防禦式施法的專注DC+4。此針對防禦式施法的加值僅當你能夠確認敵人的位置、並能夠做出藉機攻擊時才生效。若你每輪僅能夠進行1次藉機攻擊並且已經藉機攻擊過，則加值不生效。</p>"
		},
		{
			"id": "Skill Focus",
			"name": "技能專攻（Skill Focus）",
			"description": "<i>&emsp;&emsp;選擇一項技能。你特別擅長該技能。</i><hr>\n<p>&emsp;&emsp;<strong>專長效果：</strong>你在所有涉及該技能的檢定上獲得+3加值。如果你該技能的等級為10或更高，此加值提升為+6。</p>\n<p>&emsp;&emsp;<strong>特殊說明：</strong>你可以多次選取此專長。其效果不疊加。每次你獲得此專長時，它作用於一種新技能。</p>"
		},
		{
			"id": "Scribe Scroll",
			"name": "抄寫卷軸（Scribe Scroll）",
			"description": "<i>&emsp;&emsp;你能夠製造魔法卷軸。</i><hr>\n<p>&emsp;&emsp;<strong>先決條件：</strong>施法者等級1級。</p>\n<p>&emsp;&emsp;<strong>專長效果：</strong>你能夠製造你所知任意法術的卷軸。如果卷軸的基礎價格為250 gp或以下，抄錄需要2小時，否則每1000gp的基礎價格需要1天。要想抄寫卷軸，你必須花費價值為其基礎價格一半的原材料。更多信息請參見魔法物品規則。</p>"
		},
		{
			"id": "Snatch Arrows",
			"name": "抓取飛箭（Snatch Arrows）",
			"description": "<i>&emsp;&emsp;你能夠接住半空中的箭支或遠程武器，而不是把它震到一旁。</i><hr>\n<p>&emsp;&emsp;<strong>先決條件：</strong>敏捷15，撥擋飛箭，精通徒手打擊。</p>\n<p>&emsp;&emsp;<strong>專長效果：</strong>當使用“撥擋飛箭”專長時你可以選擇抓住那武器而不僅僅只是偏轉它。投擲武器可以立刻被扔回去，視為對原攻擊者的一次攻擊（即使不是你的行動輪）或留下來在以後使用。你必須至少空出一隻手（不拿任何東西）來使用此專長。</p>"
		},
		{
			"id": "Arcane Armor Mastery",
			"name": "披甲奧術熟稔（Arcane Armor Mastery）",
			"description": "<i>&emsp;&emsp;你掌握在身著盔甲的時候施法的能力。</i><hr>\n<p>&emsp;&emsp;<strong>先決條件：</strong>披甲奧術訓練，擅長中型盔甲，施法者等級7級。</p>\n<p>&emsp;&emsp;<strong>專長效果：</strong>通過一個迅捷動作，對於本輪所有法術，減少由穿戴盔甲帶來的施法失敗機率10%。</p>"
		},
		{
			"id": "Arcane Armor Training",
			"name": "披甲奧術訓練（Arcane Armor Training）",
			"description": "<i>&emsp;&emsp;你學會了怎麼在身著盔甲的時候施法。</i><hr>\n<p>&emsp;&emsp;<strong>先決條件：</strong>擅長輕型盔甲，施法者等級3級。</p>\n<p>&emsp;&emsp;<strong>專長效果：</strong>通過一個迅捷動作，對於本輪所有法術，減少由穿戴盔甲帶來的施法失敗機率10%。</p>"
		},
		{
			"id": "Deflect Arrows",
			"name": "撥擋飛箭（Deflect Arrows）",
			"description": "<i>&emsp;&emsp;敏捷13，精通徒手打擊。</i><hr>\n<p>&emsp;&emsp;<strong>先決條件：</strong>敏捷13，精通徒手打擊。</p>\n<p>&emsp;&emsp;<strong>專長效果：</strong>你必須至少空出一隻手（沒有拿任何東西）才能使用本專長。當你被遠程武器擊中時，每輪有一次機會擋掉而不受傷害。你必須察覺到該攻擊，且不能處於措手不及狀態。撥擋遠程武器不算是一個動作。通常大型遠程武器（例如巨石或弩炮巨矢）和源自天生攻擊或法術效果的遠程攻擊無法被擋開。</p>"
		},
		{
			"id": "Armor Proficiency, Medium",
			"name": "擅長中型盔甲（Armor Proficiency, Medium）",
			"description": "<i>&emsp;&emsp;你對於穿戴中型盔甲頗有心得。</i><hr>\n<p>&emsp;&emsp;<strong>先決條件：</strong>擅長輕型盔甲</p>\n<p>&emsp;&emsp;<strong>專長效果：</strong>見擅長輕型盔甲。</p>\n<p>&emsp;&emsp;<strong>通常情況：</strong>見擅長輕型盔甲。</p>\n<p>&emsp;&emsp;<strong>特殊說明：</strong>野蠻人，牧師，德魯伊，戰士，聖騎士和游俠自動學會“擅長中型盔甲”作為獎勵專長，他們無需選擇這個專長。</p>"
		},
		{
			"id": "Martial Weapon Proficiency",
			"name": "擅長軍用武器（Martial Weapon Proficiency）",
			"description": "<i>&emsp;&emsp;選擇一種軍用武器，你熟知如何在戰鬥中使用此軍用武器。</i><hr>\n<p>&emsp;&emsp;<strong>專長效果：</strong>使用該軍用武器攻擊檢定不受減值。</p>\n<p>&emsp;&emsp;<strong>通常情況：</strong>使用不擅長的武器，攻擊檢定受-4減值。</p>\n<p>&emsp;&emsp;<strong>特殊說明：</strong>野蠻人、戰士、聖騎士和游俠擅長所有軍用武器，不需選擇本專長。你可以多次選擇本專長，每次對應一種新的軍用武器。</p>"
		},
		{
			"id": "Tower Shield Proficiency",
			"name": "擅長塔盾（Tower Shield Proficiency）",
			"description": "<i>&emsp;&emsp;你善於使用塔盾。</i><hr>\n<p>&emsp;&emsp;<strong>先決條件：</strong>擅長盾牌。</p>\n<p>&emsp;&emsp;<strong>專長效果：</strong>使用塔盾時防具檢定減值僅作用於基於力量和敏捷的技能。【編注：攻擊依然-2。】</p>\n<p>&emsp;&emsp;<strong>通常情況：</strong>人物使用不擅長的盾牌時，攻擊檢定和所有移動相關的技能檢定（包括騎術）都受到盾牌的防具檢定減值。</p>\n<p>&emsp;&emsp;<strong>特殊說明：</strong>戰士無需選擇可以直接獲得“擅長塔盾”作為獎勵專長。</p>"
		},
		{
			"id": "Exotic Weapon Proficiency",
			"name": "擅長異種武器（Exotic Weapon Proficiency）",
			"description": "<i>&emsp;&emsp;選擇一種異種武器，例如刺鏈或長鞭。你了解如何使用該種異種武器進行戰鬥，並能夠利用該異種武器可能提供的特性和技巧。</i><hr>\n<p>&emsp;&emsp;<strong>先決條件：</strong>基本攻擊加值+1。</p>\n<p>&emsp;&emsp;<strong>專長效果：</strong>使用該異種武器的攻擊檢定正常。</p>\n<p>&emsp;&emsp;<strong>通常情況：</strong>使用不擅長的武器其攻擊檢定有-4減值。</p>\n<p>&emsp;&emsp;<strong>特殊說明：</strong>你可以多次選擇本專長，每次都需要選擇一種新的異種武器。</p>"
		},
		{
			"id": "Shield Proficiency",
			"name": "擅長盾牌（Shield Proficiency）",
			"description": "<i>&emsp;&emsp;當你使用盾牌（塔盾除外）時，盾牌的防具檢定減值只用於基於力量和敏捷的技能。</i><hr>\n<p>&emsp;&emsp;<strong>專長效果：</strong>當你使用盾牌（塔盾除外）時，盾牌的防具檢定減值只用於基於力量和敏捷的技能。</p>\n<p>&emsp;&emsp;<strong>通常情況：</strong>當你使用不擅長的盾牌時，你在攻擊檢定和所有涉及移動的技能檢定上承受盾牌的防具檢定減值。</p>\n<p>&emsp;&emsp;<strong>特殊說明：</strong>野蠻人、吟遊詩人、牧師、德魯伊、戰士、聖騎士和游俠都自動獲得擅長盾牌做為獎勵專長。他們不需選擇它。</p>"
		},
		{
			"id": "Simple Weapon Proficiency",
			"name": "擅長簡易武器（Simple Weapon Proficiency）",
			"description": "<i>&emsp;&emsp;你受過使用基礎武器的訓練。</i><hr>\n<p>&emsp;&emsp;<strong>專長效果：</strong>你使用簡易武器的攻擊檢定不承受減值。</p>\n<p>&emsp;&emsp;<strong>通常情況：</strong>當使用你不擅長的武器時，你在攻擊檢定上承受-4減值。</p>\n<p>&emsp;&emsp;<strong>特殊說明：</strong>除德魯伊、武僧和法師外的所有人物自動擅長所有簡易武器。他們不需選擇此專長。</p>"
		},
		{
			"id": "Armor Proficiency, Light",
			"name": "擅長輕型盔甲（Armor Proficiency, Light）",
			"description": "<i>&emsp;&emsp;你對於穿戴輕型盔甲頗有心得。</i><hr>\n<p>&emsp;&emsp;<strong>專長效果：</strong>當你穿戴所擅長的盔甲時，只有基於敏捷或力量的技能才會受到防具檢定減值。</p>\n<p>&emsp;&emsp;<strong>通常說明：</strong>見擅長輕型盔甲。</p>\n<p>&emsp;&emsp;<strong>特殊說明：</strong>野蠻人，牧師，德魯伊，戰士，聖騎士和游俠自動學會“擅長中型盔甲”作為獎勵專長，他們無需選擇這個專長。</p>"
		},
		{
			"id": "Armor Proficiency, Heavy",
			"name": "擅長重型盔甲（Armor Proficiency, Heavy）",
			"description": "<i>&emsp;&emsp;你對於穿戴重型盔甲頗有心得。</i><hr>\n<p>&emsp;&emsp;<strong>先決條件：</strong>擅長輕型盔甲，擅長中型盔甲。</p>\n<p>&emsp;&emsp;<strong>專長效果：</strong>見擅長輕型盔甲。</p>\n<p>&emsp;&emsp;<strong>通常情況：</strong>見擅長輕型盔甲。</a>.</p>\n<p>&emsp;&emsp;<strong>特殊說明：</strong>對於戰士和聖騎士，“擅長重型盔甲”作為獎勵專長自動學會，他們無需選擇這個專長。</p>"
		},
		{
			"id": "Eschew Materials",
			"name": "施法免材（Eschew Materials）",
			"description": "<i>&emsp;&emsp;你施展法術不需低級的法術材料成分。</i><hr>\n<p>&emsp;&emsp;<strong>專長效果：</strong>若欲施展的法術其材料價格低於1gp，你不需耗用材料亦可施法。但施法依舊會引發藉機攻擊。若欲施展的法術其材料價格高於1金幣，則你需要按照一般規則持有材料成分才能施法。</p>"
		},
		{
			"id": "Whirlwind Attack",
			"name": "旋風攻擊（Whirlwind Attack）",
			"description": "<i>&emsp;&emsp;你可以在一擊中攻擊所有可及的敵人。</i><hr>\n<p>&emsp;&emsp;<strong>先決條件：</strong>敏捷13，智力13，寓守於攻，閃避，靈活移動，跳躍攻擊，基本攻擊加值+4。</p>\n<p>&emsp;&emsp;<strong>專長效果：</strong>當你進行全力攻擊時，你可以放棄所有正常攻擊，改以最高BAB對攻擊範圍內所有敵人做一次近戰攻擊。你必須對每個敵人單獨進行一次攻擊檢定。當使用本專長時，你同時放棄其他專長、法術或能力所賦予你的任何額外攻擊次數。</p>"
		},
		{
			"id": "Weapon Focus",
			"name": "武器專攻（Weapon Focus）",
			"description": "<i>&emsp;&emsp;選擇一種武器。你同樣可以選擇徒手擊打或擒抱（若你能施法，也可選擇“射線”）作為本專長選擇的武器類型。</i><hr>\n<p>&emsp;&emsp;<strong>先決條件：</strong>使用專攻的武器時攻擊檢定+1。</p>\n<p>&emsp;&emsp;<strong>專長效果：</strong>使用專攻的武器時攻擊檢定+1。</p>\n<p>&emsp;&emsp;<strong>特殊說明：</strong>你可以多次選擇本專長，其效果並不累加。每次你都必須選擇不同種類的武器。</p>"
		},
		{
			"id": "Weapon Specialization",
			"name": "武器專精（Weapon Specialization）",
			"description": "<i>&emsp;&emsp;你善於使用特定類型的武器造成傷害。從已有“武器專攻”的武器中選擇一個（包括徒手擊打和擒抱），使用此種武器將可造成更多傷害。</i><hr>\n<p>&emsp;&emsp;<strong>先決條件：</strong>擅長對應武器，武器專攻，戰士4級。</p>\n<p>&emsp;&emsp;<strong>專長效果：</strong>使用專精的武器時傷害檢定+2。</p>\n<p>&emsp;&emsp;<strong>特殊說明：</strong>你可以多次選擇本專長，其效果並不累加。每次你都必須選擇不同種類的武器。</p>"
		},
		{
			"id": "Weapon Finesse",
			"name": "武器嫻熟（Weapon Finesse）",
			"description": "<i>&emsp;&emsp;你善於在近身戰鬥中使用敏捷代替蠻力。</i><hr>\n<p>&emsp;&emsp;<strong>專長效果：</strong>使用適於你體型的輕型武器、細劍、長鞭、刺鏈時，你可以在攻擊檢定中改為使用敏捷修正，而非力量修正。若你持用盾牌，攻擊檢定會受到盾牌的防具檢定減值。</p>\n<p>&emsp;&emsp;<strong>特殊說明：</strong>天生武器視為輕型武器。</p>"
		},
		{
			"id": "Spell Focus",
			"name": "法術專攻（Spell Focus）",
			"description": "<i>&emsp;&emsp;選擇一種魔法學派。你施展的該學派法術更難抵抗。</i><hr>\n<p>&emsp;&emsp;<strong>專長效果：</strong>所有對抗你選定魔法學派的法術的豁免檢定DC+1。</p>\n<p>&emsp;&emsp;<strong>特殊說明：</strong>你可以多次選取此專長。其效果不疊加。每次你獲得此專長時，它作用於一種新的魔法學派。</p>"
		},
		{
			"id": "Heighten Spell",
			"name": "法術升階（Heighten Spell）",
			"description": "<i>&emsp;&emsp;你可以使法術表現得比原本等級高。</i><hr>\n<p>&emsp;&emsp;<strong>專長效果：</strong>本專長可以使法術表現得比原本等級高（最高不可超過9環）。與其他超魔專長不同的是，法術升階可以確實提升法術的有效等級。法術效果中所有與法術等級有關的變量（如法術豁免檢定DC或穿透‘次級法術無效結界’法術的能力）都以升階後的法術等級計算。升階法術準備和釋放的難度都以提升後的法術等級計算。</p>"
		},
		{
			"id": "Enlarge Spell",
			"name": "法術增遠（Enlarge Spell）",
			"description": "<i>&emsp;&emsp;你可將法術施展得更遠。</i><hr>\n<p>&emsp;&emsp;<strong>專長效果：</strong>本專長可將近距、中距與遠距法術的距離加倍。搭配本專長的近距法術距離為“50尺+5尺/每等級”、中距法術距離為“200尺+20尺/每等級”，而遠距法術距離為“800尺+80尺/每等級”。增遠的法術須占用高於原本1個環位的法術位。本專長對於與距離無關，或不屬於近距、中距、遠距的法術沒有效果。</p>"
		},
		{
			"id": "Still Spell",
			"name": "法術定發（Still Spell）",
			"description": "<i>&emsp;&emsp;你能夠不做動作施展法術。</i><hr>\n<p>&emsp;&emsp;<strong>專長效果：</strong>法術施展時不需姿勢成分。沒有姿勢成分的法術不受影響。定發法術占用比該法術實際等級高1環的法術位。</p>"
		},
		{
			"id": "Extend Spell",
			"name": "法術延時（Extend Spell）",
			"description": "<i>&emsp;&emsp;此專長可使法術效果的持續時間加長。</i><hr>\n<p>&emsp;&emsp;<strong>專長效果：</strong>搭配此專長的法術持續時間加倍。持續時間為專注、立即或永久的法術不受本專長影響。延時的法術須占用高於原本1個環位的法術位。</p>"
		},
		{
			"id": "Empower Spell",
			"name": "法術強效（Empower Spell）",
			"description": "<i>&emsp;&emsp;你可以增強法術的力量，使其造成更大的傷害。</i><hr>\n<p>&emsp;&emsp;<strong>專長效果：</strong>搭配此專長時，法術效果中的所有可變量值皆增加一半。但本專長不影響豁免檢定與對抗檢定，對沒有變量的法術也無影響。強效的法術須占用高於原本2個環位的法術位。</p>"
		},
		{
			"id": "Widen Spell",
			"name": "法術擴展（Widen Spell）",
			"description": "<i>&emsp;&emsp;你可增加自己法術的影響範圍。</i><hr>\n<p>&emsp;&emsp;<strong>專長效果：</strong>你可增加爆發、彌漫、直線或擴散型的法術影響區域。法術的所有範圍類數值加倍。擴展的法術須占用高於原本3個環位的法術位。沒有上列四類影響範圍的法術不受本專長影響。</p>"
		},
		{
			"id": "Maximize Spell",
			"name": "法術極效（Maximize Spell）",
			"description": "<i>&emsp;&emsp;你可以將法術的效果發揮到最大。</i><hr>\n<p>&emsp;&emsp;<strong>專長效果：</strong>搭配本專長時，法術效果中所有變量皆以最大值計算。豁免檢定和對抗檢定不受影響。法術若無變動數值則無影響。極效的法術須占用高於原本3個環位的法術位。配合“法術強效”和“法術極效”的法術，可分別獲得兩個專長的效果，也就是將檢定結果的最大值加上正常檢定結果的一半。</p>"
		},
		{
			"id": "Spell Mastery",
			"name": "法術熟稔（Spell Mastery）",
			"description": "<i>&emsp;&emsp;你對一小部分法術很熟悉，能夠完全不靠法術書準備這些法術。</i><hr><p>&emsp;&emsp;<strong>先決條件：</strong>法師1級。</p><p>&emsp;&emsp;<strong>專長效果：</strong>每次你獲得此專長時，選擇數量等同於你的智力修正的已知法術。從那時起，你準備這些法術不需要法術書。</p><p>&emsp;&emsp;<strong>通常狀況：</strong>沒有此專長，你必須使用法術書來準備你的所有法術，除了‘閱讀魔法’。</p>"
		},
		{
			"id": "Quicken Spell",
			"name": "法術瞬發（Quicken Spell）",
			"description": "<i>&emsp;&emsp;你能夠在一瞬間施展法術。</i><hr>\n<p>&emsp;&emsp;<strong>專長效果：</strong>施展瞬發法術是迅捷動作。在施展瞬發法術的同一輪裡，你可以做另一個動作，甚至施展另一個法術。施法時間超過1個整輪動作的法術無法被瞬發。瞬發法術占用比該法術實際等級高4環的法術位。施展瞬發法術不會觸發藉機攻擊。</p>\n<p>&emsp;&emsp;<strong>特殊說明：</strong>你能夠將此專長的效果應用於自發施展的法術，只要其施法時間不超過1個整輪動作，這樣做不會增加該法術的施法時間。</p>"
		},
		{
			"id": "Spell Penetration",
			"name": "法術穿透（Spell Penetration）",
			"description": "<i>&emsp;&emsp;你的法術比大多數的法術更容易穿透法術抗力。</i><hr>\n<p>&emsp;&emsp;<strong>專長效果：</strong>你在克服生物法術抗力的施法者等級檢定（1d20+CL）上獲得+2加值。</p>"
		},
		{
			"id": "Silent Spell",
			"name": "法術默發（Silent Spell）",
			"description": "<i>&emsp;&emsp;你能夠不發生聲音施展法術。</i><hr>\n<p>&emsp;&emsp;<strong>專長效果：</strong>法術施展時不需言語成分。沒有言語成分的法術不受影響。默發法術占用比該法術實際等級高1環的法術位。</p>\n<p>&emsp;&emsp;<strong>特殊說明：</strong>吟遊詩人的法術不能用此專長強化。</p>"
		},
		{
			"id": "Bleeding Critical",
			"name": "流血重擊（Bleeding Critical）",
			"description": "<i>&emsp;&emsp;你的重擊能造成敵人流血不止。</i><hr>\n<p>&emsp;&emsp;<strong>先決條件：</strong>重擊專攻，基本攻擊加值+11。</p>\n<p>&emsp;&emsp;<strong>專長效果：</strong>當你用揮砍或穿刺類武器造成重擊時，你的敵人在受到重擊傷害同時每輪承受2d6出血傷害。出血傷害可以通過DC15的醫療技能檢定或者任何魔法治療來制止。本專長效果可以疊加。</p>\n<p>&emsp;&emsp;<strong>特殊說明：</strong>在沒有掌握“重擊熟稔”專長前，每次重擊時你只能選擇一種重擊專長效果。</p>"
		},
		{
			"id": "Agile Maneuvers",
			"name": "靈巧武藝（Agile Maneuvers）",
			"description": "<i>&emsp;&emsp;你學會了在戰鬥中使用你靈活的招式。</i><hr>\n<p>&emsp;&emsp;<strong>專長效果：</strong>: 用你的敏捷修正代替力量修正來決定CMB加值。</p><p>&emsp;&emsp;<strong>通常qing'k情況：</strong>: 用你的力量修正和體型修正來決定戰鬥招式加值。</p>"
		},
		{
			"id": "Mobility",
			"name": "靈活移動（Mobility）",
			"description": "<i>&emsp;&emsp;你善於閃過敵人並躲開攻擊。</i><hr>\n<p>&emsp;&emsp;<strong>先決條件：</strong>敏捷13，閃避。</p>\n<p>&emsp;&emsp;<strong>專長效果：</strong>當你離開敵人的威脅區域或在該範圍內移動，引發對方藉機攻擊時，你的AC可獲得+4閃避加值。若你失去AC的敏捷加值（如果有），也會同時失去閃避加值。各項閃避加值可以累加，這與其他大部分類型加值不同。</p>"
		},
		{
			"id": "Nimble Moves",
			"name": "靈狐步（Nimble Moves）",
			"description": "<i>&emsp;&emsp;你能夠輕鬆越過單獨的障礙。</i><hr>\n<p>&emsp;&emsp;<strong>先決條件：</strong>敏捷13。</p>\n<p>&emsp;&emsp;<strong>專長效果：</strong>當你移動時，你每輪可以像正常地形般穿越5尺的困難地形。本專長允許你使用五尺快步進入困難地形。</p>"
		},
		{
			"id": "Dazzling Display",
			"name": "炫目技巧（Dazzling Display）",
			"description": "<i>&emsp;&emsp;你對於最熱衷的武器的掌握能使你的敵人眼花繚亂。</i><hr>\n<p>&emsp;&emsp;<strong>先決條件：</strong>武器專攻，擅長對應的武器。</p>\n<p>&emsp;&emsp;<strong>專長效果：</strong>當裝備了你所擁有“武器專攻”專長的武器時，你能以整輪動作來展示你華麗的技巧。你將對30尺內所有能看見你的敵人做出挫敗士氣的威嚇檢定。</p>"
		},
		{
			"id": "Acrobatic",
			"name": "特技專家（Acrobatic）",
			"description": "<i>&emsp;&emsp;你對於衝刺，跳躍和飛行頗有心得。</i><hr>\n<p>&emsp;&emsp;<strong>專長效果：</strong>對於所有的特技和飛行檢定獲得+2獎勵。如果某技能受訓等級10以上，對於該技能檢定的獎勵為+4。</p>"
		},
		{
			"id": "Power Attack",
			"name": "猛力攻擊（Power Attack）",
			"description": "<i>&emsp;&emsp;通過犧牲準度來換取力道，你能夠做出異常致命的近戰攻擊。</i><hr>\n<p>&emsp;&emsp;<strong>先決條件：</strong>力量13，基本攻擊加值+1。</p>\n<p>&emsp;&emsp;<strong>專長效果：</strong>你可以選擇在所有近戰攻擊和戰技檢定上承受-1減值，以在所有近戰傷害檢定上獲得+2加值。如果你進行攻擊時使用的是雙手武器、雙手持用的單手武器或可在傷害檢定上加上1.5倍力量修正的主要天生武器，此傷害加值提升一半（+50%）。如果你進行攻擊時使用的是副手武器或次要天生武器，此傷害加值減半（-50%）。當你的BAB達到+4，和以後的每4點提升，攻擊減值再-1，傷害加值再+2。你必須在進行攻擊檢定前選擇使用此專長，其效果持續到你的下回合之前。接觸攻擊和不造成生命點數傷害的效果無法獲得傷害加值。</p>"
		},
		{
			"id": "Tiring Critical",
			"name": "疲乏重擊（Tiring Critical）",
			"description": "<i>&emsp;&emsp;你的重擊令對手疲乏。</i><hr>\n<p>&emsp;&emsp;<strong>先決條件：</strong>重擊專攻，基本攻擊加值+13。</p>\n<p>&emsp;&emsp;<strong>專長效果：</strong>每當你對一個敵人成功造成重擊時，會令該生物陷入疲乏狀態。此專長對已陷入疲乏或力竭的生物無效。</p>\n<p>&emsp;&emsp;<strong>特殊說明：</strong>在沒有掌握“重擊熟稔”專長前，每次重擊時你只能選擇一種重擊專長效果。</p>"
		},
		{
			"id": "Wind Stance",
			"name": "疾風步（Wind Stance）",
			"description": "<i>&emsp;&emsp;你移動時步伐飄忽不定，令敵人難以瞄準你的位置。</i><hr>\n<p>&emsp;&emsp;<strong>先決條件：</strong>敏捷15，閃避，基本攻擊加值+6。</p>\n<p>&emsp;&emsp;<strong>專長效果：</strong>若你在一輪中移動超過5尺，則該輪中你針對遠程攻擊獲得20％隱蔽。</p>"
		},
		{
			"id": "Blind-Fight",
			"name": "盲鬥（Blind-Fight）",
			"description": "<i>&emsp;&emsp;你能夠在不能清晰感知你的敵人的情況下，熟練地進行攻擊。</i><hr>\n<p>&emsp;&emsp;<strong>專長效果：</strong>在近戰時，每次因為隱蔽效果而造成的攻擊失手，你都能重骰失手率以確定你是否擊中。不可見的攻擊者在近戰攻擊你時不會獲得特殊優勢。這就是說你不會失去AC的敏捷加值，對方也無法獲得通常隱形下的攻擊+2加值。但是不可見攻擊者的遠程攻擊依然會有上述優勢。此外，你在目盲狀態下全速移動時無需進行特技技能檢定。</p>\n<p>&emsp;&emsp;<strong>通常情況：</strong>不可見的攻擊者對你的攻擊會讓你失去AC的敏捷加值。黑暗或視覺受限的狀況也會減慢你的移動速度。</p>\n<p>&emsp;&emsp;<strong>特殊說明：</strong>“盲鬥”專長對於那些處在‘閃現術’法術效果下的角色無效。</p>"
		},
		{
			"id": "Shield Focus",
			"name": "盾牌專攻（Shield Focus）",
			"description": "<i>&emsp;&emsp;你善於用盾牌偏轉攻擊。</i><hr>\n<p>&emsp;&emsp;<strong>先決條件：</strong>擅長盾牌，基本攻擊加值+1。</p>\n<p>&emsp;&emsp;<strong>專長效果：</strong>你由盾牌獲得的AC加值+1。</p>"
		},
		{
			"id": "Shield Master",
			"name": "盾牌大師（Shield Master）",
			"description": "<i>&emsp;&emsp;你對盾牌的掌握使得你可以不受妨礙的用盾戰鬥。</i><hr>\n<p>&emsp;&emsp;<strong>先決條件：</strong>精通盾擊，擅長盾牌，盾牌猛擊，雙武器格鬥，基本攻擊加值+11。</p>\n<p>&emsp;&emsp;<strong>專長效果：</strong>當持用另一把武器時，你使用盾牌的攻擊檢定不會承受任何減值。將盾牌的AC增強加值加到用盾牌做出的攻擊和傷害檢定上，如同它是武器增強加值一樣。</p>"
		},
		{
			"id": "Shield Slam",
			"name": "盾牌猛衝（Shield Slam）",
			"description": "<i>&emsp;&emsp;只要地形合適，你能用盾牌讓對手飛起來。</i><hr>\n<p>&emsp;&emsp;<strong>先決條件：</strong>精通盾擊，擅長盾牌，雙武器格鬥，基本攻擊加值+6。</p>\n<p>&emsp;&emsp;<strong>專長效果：</strong>任何被你盾擊命中的對手也受到一次自由動作的衝撞攻擊，用這次攻擊檢定的結果來替代戰技檢定。這次衝撞不會觸發藉機攻擊。因墻或其他表面不能後退的對手在移動最大的可行距離後被擊倒在地。如果你本輪能夠做一次五尺快步或花費一個動作來移動，你可以選擇跟隨你的目標移動。</p>"
		},
		{
			"id": "Spellbreaker",
			"name": "破法者（Spellbreaker）",
			"description": "<i>&emsp;&emsp;當你威脅到敵人的施法者時，如果他們防禦施法失敗，你能夠對他們進行攻擊。</i><hr>\n<p>&emsp;&emsp;<strong>先決條件：</strong>擾法者，戰士10級。</p>\n<p>&emsp;&emsp;<strong>專長效果：</strong>在你威脅範圍內防禦施法檢定失敗的敵人會觸發你的藉機攻擊。</p>\n<p>&emsp;&emsp;<strong>通常情況：</strong>防禦施法失敗的敵人不會觸發藉機攻擊</p>"
		},
		{
			"id": "Acrobatic Steps",
			"name": "神行步（Acrobatic Steps）",
			"description": "<i>&emsp;&emsp;你能輕鬆的越過障礙。</i><hr>\n<p>&emsp;&emsp;<strong>先決條件：</strong>敏捷15，靈狐步。</p><p>&emsp;&emsp;<strong>專長效果：</strong>不論怎樣移動，你每回合可以將至多15尺的複雜地形當作一般地形來移動。本專長可以與“靈狐步”效果疊加（即允許你每回合正常移動20尺的複雜地形）。</p>"
		},
		{
			"id": "Shot on the Run",
			"name": "移動射擊（Shot on the Run）",
			"description": "<i>&emsp;&emsp;你能夠移動，射擊一件遠程武器，然後在你的敵人能夠反應之前再次移動。</i><hr><p>&emsp;&emsp;<strong>先決條件：</strong>敏捷13，閃避，靈活移動，近距射擊，基本攻擊加值+4。</p><p>&emsp;&emsp;<strong>專長效果：</strong>以一個整輪動作，你能夠移動至多等同於你速度的距離，並在移動的任意時點做一次單獨的遠程攻擊。</p><p>&emsp;&emsp;<strong>通常狀況：</strong>你不能在使用遠程武器進行攻擊之前和之後都移動。</p>"
		},
		{
			"id": "Penetrating Strike",
			"name": "穿透打擊（Penetrating Strike）",
			"description": "<i>&emsp;&emsp;你的攻擊能夠穿透某些生物的防禦。選擇一種你已獲得了武器專攻的武器。</i><hr>\n<p>&emsp;&emsp;<strong>先決條件：</strong>武器專攻，基本攻擊加值+1，12級戰士，擅長對應武器。</p>\n<p>&emsp;&emsp;<strong>專長效果：</strong>你使用選定武器進行的攻擊無視至多5點傷害減免。此專長對無類別的傷害減免無效（比如“10/-”）。</p>"
		},
		{
			"id": "Lunge",
			"name": "突刺（Lunge）",
			"description": "<i>&emsp;&emsp;你可以攻擊正常觸及之外的敵人。</i><hr>\n<p>&emsp;&emsp;<strong>先決條件：</strong>基本攻擊加值+6。</p>\n<p>&emsp;&emsp;<strong>專長效果：</strong>你可以令近戰攻擊距離增加5尺直到你的回合結束，但直到你的下輪行動時AC受-2減值。你必須在做出任何攻擊前宣布使用此能力。</p>"
		},
		{
			"id": "Shatter Defenses",
			"name": "粉碎防禦（Shatter Defenses）",
			"description": "<i>&emsp;&emsp;你使用選定武器的技巧能夠讓露出破綻的對手門戶大開。</i><hr>\n<p>&emsp;&emsp;<strong>先決條件：</strong>武器專攻，炫目技巧，基本攻擊加值+6，擅長對應武器。</p>\n<p>&emsp;&emsp;<strong>專長效果：</strong>任何本輪被你擊中的處於戰慄、驚懼或恐慌狀態的對手，直到你的下個回合結束，對於你做出的攻擊處於措手不及狀態。這包括你本輪進行的任何額外的攻擊。</p>"
		},
		{
			"id": "Precise Shot",
			"name": "精準射擊（Precise Shot）",
			"description": "<i>&emsp;&emsp;你擅長向近戰中進行遠程攻擊。</i><hr>\n<p>&emsp;&emsp;<strong>先決條件：</strong>近距射擊。</p>\n<p>&emsp;&emsp;<strong>專長效果：</strong>你對近戰中的對手射擊或投擲遠程武器時不需在攻擊檢定上承受標準的-4減值。</p>"
		},
		{
			"id": "Pinpoint Targeting",
			"name": "精確瞄準（Pinpoint Targeting）",
			"description": "<i>&emsp;&emsp;你能夠瞄準對手盔甲上的弱點。</i><hr>\n<p>&emsp;&emsp;<strong>先決條件：</strong>敏捷19，精通精準射擊，近距射擊，精準射擊，基本攻擊加值+16。</p>\n<p>&emsp;&emsp;<strong>專長效果：</strong>以一個標準動作，做一次單獨的遠程攻擊。目標無法獲得任何盔甲、天生護甲或盾牌加值到他的AC上。如果你本輪進行了移動，你無法受益於此專長。</p>"
		},
		{
			"id": "Improved Initiative",
			"name": "精通先攻（Improved Initiative）",
			"description": "<i>&emsp;&emsp;你對戰鬥的反應很快，使你能夠迅速對危險做出反應。</i><hr><p>&emsp;&emsp;專長效果：先攻檢定獲得+4加值。</p>"
		},
		{
			"id": "Improved Bull Rush",
			"name": "精通衝撞（Improved Bull Rush）",
			"description": "<i>&emsp;&emsp;你熟知撞退對手的技巧。</i><hr>\n<p>&emsp;&emsp;<strong>先決條件：</strong>力量13，猛力攻擊，基本攻擊加值+1</p>\n<p>&emsp;&emsp;<strong>專長效果：</strong>當你進行衝撞時，防禦者無法對你發動藉機攻擊。此外在衝撞檢定中你獲得+2加值。你在對抗衝撞的戰技防禦（CMD）上同樣獲得+2加值。</p>\n<p>&emsp;&emsp;<strong>通常情況：</strong>你的衝撞戰技會引發藉機攻擊。</p>"
		},
		{
			"id": "Improved Disarm",
			"name": "精通卸武（Improved Disarm）",
			"description": "<i>&emsp;&emsp;你擅長在戰鬥中卸除對手的武器。</i><hr>\n<p>&emsp;&emsp;<strong>先決條件：</strong>智力13，寓守於攻。</p>\n<p>&emsp;&emsp;<strong>專長效果：</strong>當你試圖卸除對手的武器時，不會引發對方的藉機攻擊。此外，在你卸武檢定上獲得+2加值。你在對抗卸武的戰技防禦上同樣獲得+2加值。</p>\n<p>&emsp;&emsp;<strong>通常情況：</strong>你在使用卸武戰技時會引發藉機攻擊。</p>"
		},
		{
			"id": "Improved Two-Weapon Fighting",
			"name": "精通雙武器格鬥（Improved Two-Weapon Fighting）",
			"description": "<i>&emsp;&emsp;你是使用雙武器戰鬥的專家。</i><hr>\n<p>&emsp;&emsp;<strong>先決條件：</strong>敏捷17，雙武器格鬥，基本攻擊加值+6。</p>\n<p>&emsp;&emsp;<strong>專長效果：</strong>除了原本額外的一次副手攻擊外，你還可用副手再多攻擊一次，但受-5減值。</p>\n<p>&emsp;&emsp;<strong>通常情況：</strong>無此專長時副手武器僅能進行一次額外攻擊。</p>"
		},
		{
			"id": "Improved Channel",
			"name": "精通導能（Improved Channel）",
			"description": "<i>&emsp;&emsp;你引導的能量難以被抵抗。</i><hr>\n<p>&emsp;&emsp;<strong>先決條件：</strong>【引導能量】職業特性。</p>\n<p>&emsp;&emsp;<strong>專長效果：</strong>你引導能量的豁免DC+2。</p>"
		},
		{
			"id": "Improved Great Fortitude",
			"name": "精通強韌加強（Improved Great Fortitude）",
			"description": "<i>&emsp;&emsp;你能夠利用內在之物抵禦疾病、毒素、和其他強烈的傷害。</i><hr>\n<p>&emsp;&emsp;<strong>先決條件：</strong>強韌加強。</p>\n<p>&emsp;&emsp;<strong>專長效果：</strong>每日1次，你可以重擲一次強韌檢定。你必須在宣布結果前選擇使用本能力。你必須接受重擲的結果，即使比原來的結果還要差。</p>"
		},
		{
			"id": "Improved Unarmed Strike",
			"name": "精通徒手打擊（Improved Unarmed Strike）",
			"description": "<i>&emsp;&emsp;你精通徒手作戰的技巧。</i><hr>\n<p>&emsp;&emsp;<strong>專長效果：</strong>即使徒手也視同持有武器，也就是說當你徒手攻擊時，不會引發藉機攻擊。此外，你可以選擇讓你的徒手擊打造成致命或非致命傷害。</p>\n<p>&emsp;&emsp;<strong>通常情況：</strong>無此專長者若徒手攻擊則視為未武裝，也只能造成非致命傷害。</p>"
		},
		{
			"id": "Improved Grapple",
			"name": "精通擒抱（Improved Grapple）",
			"description": "<i>&emsp;&emsp;你擅長於擒抱住對手。</i><hr>\n<p>&emsp;&emsp;<strong>先決條件：</strong>敏捷13，精通徒手打擊。</p>\n<p>&emsp;&emsp;<strong>專長效果：</strong>你使用擒抱戰技時不會引發藉機攻擊。此外你在擒抱檢定上獲得+2加值，同時在對抗擒抱的戰技防禦上獲得+2加值。</p>\n<p>&emsp;&emsp;<strong>通常情況：</strong>試圖使用擒抱戰技會引發藉機攻擊。</p>"
		},
		{
			"id": "Improved Counterspell",
			"name": "精通法術反制（Improved Counterspell）",
			"description": "<i>&emsp;&emsp;你擅長用類似法術反制他人的法術。</i><hr>\n<p>&emsp;&emsp;<strong>專長效果：</strong>你可以使用比目標法術高1環的相同學派法術進行反制。</p>\n<p>&emsp;&emsp;<strong>通常情況：</strong>無此專長的人物只能用同樣或特定的法術才能進行反制。</p>"
		},
		{
			"id": "Improved Shield Bash",
			"name": "精通盾擊（Improved Shield Bash）",
			"description": "<i>&emsp;&emsp;即便你使用盾牌猛擊，你還是可以正常使用它保護自身。</i><hr>\n<p>&emsp;&emsp;<strong>先決條件：</strong>擅長盾牌。</p>\n<p>&emsp;&emsp;<strong>專長效果：</strong>當你使用盾牌猛擊時，其對AC的盾牌加值依舊適用。</p>\n<p>&emsp;&emsp;<strong>通常情況：</strong>沒有本專長的人一旦使用盾牌猛擊，直到下個回合都將喪失盾牌對AC的加值。</p>"
		},
		{
			"id": "Improved Sunder",
			"name": "精通破武（Improved Sunder）",
			"description": "<i>&emsp;&emsp;你善於攻擊對手的武器和盔甲。</i><hr>\n<p>&emsp;&emsp;<strong>先決條件：</strong>力量13，猛力攻擊，基本攻擊加值+1。</p>\n<p>&emsp;&emsp;<strong>專長效果：</strong>當你使用破武戰技時不會引發對手的藉機攻擊。此外，你在破武檢定上獲得+2加值，在對抗破武的戰技防禦上也獲得+2加值。</p>\n<p>&emsp;&emsp;<strong>通常情況：</strong>你使用破武戰技時會引發藉機攻擊。</p>"
		},
		{
			"id": "Improved Precise Shot",
			"name": "精通精準射擊（Improved Precise Shot）",
			"description": "<i>&emsp;&emsp;你的遠程攻擊可無視掩蔽與隱蔽的影響。除了完全掩蔽和隱蔽。</i><hr>\n<p>&emsp;&emsp;<strong>先決條件：</strong>敏捷19，近距射擊，精準射擊，基本攻擊加值+11。</p>\n<p>&emsp;&emsp;<strong>專長效果：</strong>你的遠程攻擊可忽略大多數掩蔽與隱蔽所提供的AC加值與失手機率，除了全掩蔽與全隱蔽，它們將照常對遠程攻擊造成影響。</p>\n<p>&emsp;&emsp;<strong>通常情況：</strong>參見關於掩蔽和隱蔽的正常規則。</p>"
		},
		{
			"id": "Improved Trip",
			"name": "精通絆摔（Improved Trip）",
			"description": "<i>&emsp;&emsp;你擅長將對手送到地上。</i><hr>\n<p>&emsp;&emsp;<strong>先決條件：</strong>智力13，寓守於攻。</p>\n<p>&emsp;&emsp;<strong>專長效果：</strong>你使用絆摔戰技不會引發藉機攻擊。此外在絆摔檢定上你獲得+2加值，在對抗絆摔的戰技防禦上也獲得+2加值。</p>\n<p>&emsp;&emsp;<strong>通常情況：</strong>你在使用絆摔戰技時會引發藉機攻擊。</p>"
		},
		{
			"id": "Improved Feint",
			"name": "精通虛招（Improved Feint）",
			"description": "<i>&emsp;&emsp;你擅長於戰鬥中愚弄對手。</i><hr>\n<p>&emsp;&emsp;<strong>先決條件：</strong>智力13，寓守於攻。</p>\n<p>&emsp;&emsp;<strong>專長效果：</strong>你在戰鬥中能夠以移動動作進行虛招的唬騙檢定。</p>\n<p>&emsp;&emsp;<strong>通常情況：</strong>戰鬥中的虛招為標準動作。</p>"
		},
		{
			"id": "Improved Vital Strike",
			"name": "精通要害打擊（Improved Vital Strike）",
			"description": "<i>&emsp;&emsp;你可以在一擊中造成大量的傷害。</i><hr>\n<p>&emsp;&emsp;<strong>先決條件：</strong>要害打擊，基本攻擊加值+11。</p>\n<p>&emsp;&emsp;<strong>專長效果：</strong>你可以用一個標準動作以你的最高BAB做出一次攻擊，並造成額外的傷害。丟傷害骰三次並將結果合計，但力量、武器屬性（例如〈熾焰〉效果）及基於精準攻擊（例如偷襲）帶來的傷害增加值不翻倍。本專長帶來的額外傷害在重擊時不翻倍（儘管其他傷害增加值正常翻倍計算）。</p>"
		},
		{
			"id": "Improved Critical",
			"name": "精通重擊（Improved Critical）",
			"description": "<i>&emsp;&emsp;你使用特定的武器攻擊起來更易擊中敵人要害。</i><hr>\n<p>&emsp;&emsp;<strong>先決條件：</strong>擅長選擇的特定武器，基本攻擊加值+8。</p>\n<p>&emsp;&emsp;<strong>專長效果：</strong>使用特定武器的重擊威脅範圍加倍。</p>\n<p>&emsp;&emsp;<strong>特殊說明：</strong>你可以多次選擇本專長，但並非累加效果。每次你選擇本專長時，需選擇一個新的武器類型。本專長不可與任何增加重擊威脅範圍的效果累加。</p>"
		},
		{
			"id": "Improved Iron Will",
			"name": "精通鋼鐵意志（Improved Iron Will）",
			"description": "<i>&emsp;&emsp;你的清晰思維使你能夠抵抗心靈的攻擊。</i><hr>\n<p>&emsp;&emsp;<strong>先決條件：</strong>鋼鐵意志。</p>\n<p>&emsp;&emsp;<strong>專長效果：</strong>每日1次，你可以你可以重擲一次意志檢定。你必須在宣布結果前選擇使用本能力。你必須接受重擲的結果，即使比原來的結果還要差。</p>"
		},
		{
			"id": "Improved Lightning Reflexes",
			"name": "精通閃電反射（Improved Lightning Reflexes）",
			"description": "<i>&emsp;&emsp;你有避開所有周遭危險的本事。</i><hr>\n<p>&emsp;&emsp;<strong>先決條件：</strong>閃電反射。</p>\n<p>&emsp;&emsp;<strong>專長效果：</strong>每日1次，你可以你可以重擲一次反射檢定。你必須在宣布結果前選擇使用本能力。你必須接受重擲的結果，即使比原來的結果還要差。</p>"
		},
		{
			"id": "Improved Overrun",
			"name": "精通闖越（Improved Overrun）",
			"description": "<i>&emsp;&emsp;你善於擊倒對手。</i><hr>\n<p>&emsp;&emsp;<strong>先決條件：</strong>力量13，猛力攻擊，基本攻擊加值+1。</p>\n<p>&emsp;&emsp;<strong>專長效果：</strong>當你試圖使用闖越戰技時，不會引發藉機攻擊。此外你在闖越檢定獲得+2加值，同時在對抗闖越的戰技防禦上獲得+2加值。你試圖闖越的目標無法躲避你。</p>\n<p>&emsp;&emsp;<strong>通常情況：</strong>正常情況使用闖越戰技會引發藉機攻擊。</p>"
		},
		{
			"id": "Natural Spell",
			"name": "自然施法（Natural Spell）",
			"description": "<i>&emsp;&emsp;你可在自然變身狀態下施法，即使該形態正常無法施法。</i><hr>\n<p>&emsp;&emsp;<strong>先決條件：</strong>感知13，【自然變身】職業特性。</p>\n<p>&emsp;&emsp;<strong>專長效果：</strong>你可在自然變身狀態下完成法術的言語與姿勢。你使用各種聲音和動作代替原本法術正常的言語與姿勢。你仍舊能夠使用任何你擁有的施法材料或器材，即使這些東西已經融進了你現在的形態中。若此型態原本就無法使用某種魔法物品，這項專長並不賦予使用物品的能力，此外本專長也不能讓你在自然變身型態時說話。</p>"
		},
		{
			"id": "Self-Sufficient",
			"name": "自給自足（Self-Sufficient）",
			"description": "<i>&emsp;&emsp;你知道如何在野外生存和如何有效的治療傷口。</i><hr>\n<p>&emsp;&emsp;<strong>專長效果：</strong>你在醫療和生存技能檢定上獲得+2加值。如果某技能受訓等級10以上，該技能獲得的加值提升為+4。</p>"
		},
		{
			"id": "Deadly Aim",
			"name": "致命瞄準（Deadly Aim）",
			"description": "<i>&emsp;&emsp;通過減少命中率，你能對準敵人的弱點做出極具威脅的遠程攻擊。</i><hr>\n<p>&emsp;&emsp;<strong>先決條件：</strong>敏捷13，基本攻擊加值+1。</p>\n<p>&emsp;&emsp;<strong>專長效果：</strong>你可以選擇使所有的遠程攻擊檢定受到-1的減值以換取傷害+2。你的BAB每+4，減值再-1，傷害再+2。你必須在攻擊檢定前選擇使用本專長，效果持續到你的下一輪。本專長對於接觸攻擊或不造成HP傷害的攻擊無效。</p>"
		},
		{
			"id": "Deadly Stroke",
			"name": "致命絕殺（Deadly Stroke）",
			"description": "<i>&emsp;&emsp;你能用一次精確的擊打，快速而致命的終結你的敵人。</i><hr>\n<p>&emsp;&emsp;<strong>先決條件：</strong>炫目技巧，高等武器專攻，粉碎打擊，武器專攻，擅長對應的武器，基本攻擊加值+11。</p>\n<p>&emsp;&emsp;<strong>專長效果：</strong>作為一個標準動作，以你所擁有“高等武器專攻”專長的武器，對一個處於震懾或措手不及狀態的敵人做出攻擊。如果擊中，將造成雙倍普通傷害以及1點體質出血。額外傷害和出血不會因重擊而加倍。</p>"
		},
		{
			"id": "Blinding Critical",
			"name": "致盲重擊（Blinding Critical）",
			"description": "<i>&emsp;&emsp;你的重擊能讓敵人目盲</i><hr>\n<p>&emsp;&emsp;<strong>先決條件：</strong>重擊專攻，基本攻擊加值+15。</p>\n<p>&emsp;&emsp;<strong>專長效果：</strong>你的重擊會讓你的敵人永久目盲。成功的強韌豁免會將目盲效果減弱為目眩，持續1d4輪。強韌豁免的DC為“10+你的BAB”。本專長對視覺不依賴眼睛或多於兩隻眼睛的生物無效（雖然多次重擊可能會使所有的眼睛目盲，由GM決定）。目盲可由‘醫療術’、‘再生術’、‘移除目盲’法術或類似能力治愈。</p>\n<p>&emsp;&emsp;<strong>特殊說明：</strong>在沒有掌握“重擊熟稔”專長前，每次重擊時你只能選擇一種重擊專長效果。</p>"
		},
		{
			"id": "Deafening Critical",
			"name": "致聾重擊（Deafening Critical）",
			"description": "<i>&emsp;&emsp;你的重擊令命中的敵人失去聽力。</i><hr>\n<p>&emsp;&emsp;<strong>先決條件：</strong>重擊專攻，基本攻擊加值+13。</p>\n<p>&emsp;&emsp;<strong>專長效果：</strong>每當你對一個敵人成功造成重擊時，會令該生物永久失聰。成功通過強韌豁免可使耳聾效果減至1輪。強韌豁免的DC為“10+你的BAB”。此專長對已聾及無聽覺的生物無效。耳聾可由‘醫療術’、‘再生術’、‘移除耳聾’法術或類似能力治愈。</p>\n<p>&emsp;&emsp;<strong>特殊說明：</strong>在沒有掌握“重擊熟稔”專長前，每次重擊時你只能選擇一種重擊專長效果。</p>"
		},
		{
			"id": "Unseat",
			"name": "落馬擊（Unseat）",
			"description": "<i>&emsp;&emsp;你擅長將騎乘對手擊落馬下。</i><hr>\n<p>&emsp;&emsp;<strong>先決條件：</strong>力量13，騎乘1級，騎乘戰鬥，猛力攻擊，精通衝撞，基本攻擊加值+1。</p>\n<p>&emsp;&emsp;<strong>專長效果：</strong>當騎乘並使用長槍對敵人進行衝鋒時，照常計算攻擊檢定。但若攻擊命中，你在正常的傷害之外，可以立即進行一次衝撞嘗試。若檢定成功，則目標被從馬上擊落倒地在臨近他的坐騎且直線遠離你的位置。</p>"
		},
		{
			"id": "Gorgon's Fist",
			"name": "蛇形拳（Gorgon's Fist）",
			"description": "<i>&emsp;&emsp;你可以通過擊中特定部位令對手動搖。</i><hr><p>&emsp;&emsp;<strong>先決條件：</strong>精通徒手打擊，蝎形拳，基本攻擊加值+6。</p><p>&emsp;&emsp;<strong>專長效果：</strong>以一個標準動作對被減速的敵人（例如被“蝎形拳”專長減速）進行一次徒手近戰攻擊。若該次攻擊命中，則正常造成傷害的同時令目標陷入恍惚狀態，直到你的下輪結束，除非對方成功通過DC為“10+1/2你的角色等級+感知修正”的強韌豁免。本專長對已陷入恍惚的目標無效。<p>&emsp;&emsp;"
		},
		{
			"id": "Scorpion Style",
			"name": "蝎形拳（Scorpion Style）",
			"description": "<i>&emsp;&emsp;你的徒手擊打能夠嚴重妨礙目標的移動。</i><hr>\n<p>&emsp;&emsp;<strong>先決條件：</strong>精通徒手打擊。</p>\n<p>&emsp;&emsp;<strong>專長效果：</strong>要使用此專長，你必須用標準動作做一次單一的徒手攻擊。如果此徒手攻擊命中，你正常造成傷害，且目標的基本陸地速度降為5尺，持續輪數等同於你的感知修正，除非其通過DC為“10+1/2你的角色等級+感知修正”的強韌豁免檢定。</p>"
		},
		{
			"id": "Vital Strike",
			"name": "要害打擊（Vital Strike）",
			"description": "<i>&emsp;&emsp;你在一擊中造成明顯超乎尋常的傷害。</i><hr>\n<p>&emsp;&emsp;<strong>先決條件：</strong>基本攻擊加值+6。</p>\n<p>&emsp;&emsp;<strong>專長效果：</strong>你能以一個攻擊動作，利用你的最高基本攻擊加值做出一次可造成額外傷害的攻擊。該次攻擊扔武器傷害骰兩次並相加，之後再加算力量、武器能力（例如〔熾焰〕附魔），基於精準的傷害和其它傷害加值。本專長帶來的額外武器傷害在重擊時不翻倍，而只加在總值上。</p>"
		},
		{
			"id": "Alertness",
			"name": "警覺（Alertness）",
			"description": "<i>&emsp;&emsp;你通常能注意到一些別人忽視的事情。</i><hr>\n<p>&emsp;&emsp;<strong>專長效果：</strong>在察覺和察言觀色技能檢定上獲得+2獎勵。如果某技能受訓等級10以上，對於該技能檢定的獎勵為+4。</p>"
		},
		{
			"id": "Deceitful",
			"name": "詐欺師（Deceitful）",
			"description": "<i>&emsp;&emsp;你善於欺騙他人，無論謊言還是喬裝易容。</i><hr>\n<p>&emsp;&emsp;<strong>專長效果：</strong>你在所有唬騙和易容技能檢定上獲得+2加值。如果某技能受訓等級10以上，則對應加值改為+4。</p>"
		},
		{
			"id": "Brew Potion",
			"name": "調制藥劑（Brew Potion）",
			"description": "<i>&emsp;&emsp;你能製造魔法藥水。</i><hr>\n<p>&emsp;&emsp;<strong>先決條件：</strong>施法者等級3級。</p>\n<p>&emsp;&emsp;<strong>專長效果：</strong>你能基於任意3環以下、目標為一個或多個生物或物體的法術製造魔法藥水。【譯注：這就是說目標為〔自己〕的法術不能制藥，譬如‘克敵機先’。】製造價值250gp以下的藥水需要花費2個小時，否則每1000gp需花費1天。當你調制藥劑的時候，由你設定其CL，該等級需滿足施放該法術的條件並且不高於你當前的等級。你需要同等同於一半藥水價值的原料來調制藥劑。更多信息請參見魔法物品規則。</p><p>&emsp;&emsp;當你調制藥劑時，你需要像施展該法術一樣進行某些效果的選擇。法術的目標就是使用藥水者。</p>"
		},
		{
			"id": "Persuasive",
			"name": "談判專家（Persuasive）",
			"description": "<i>&emsp;&emsp;你善於動搖態度和脅迫他人按你的想法行事。</i><hr>\n<p>&emsp;&emsp;<strong>專長效果：</strong>你在交涉和威嚇技能檢定上獲得+2加值。如果某技能受訓等級10以上，該技能獲得的加值提升為+4。</p>"
		},
		{
			"id": "Spring Attack",
			"name": "跳躍攻擊（Spring Attack）",
			"description": "<i>&emsp;&emsp;你能夠巧妙的接近一個敵人，攻擊，然後在他反應之前撤退。</i><hr>\n<p>&emsp;&emsp;<strong>先決條件：</strong>敏捷13，閃避，靈活移動，基本攻擊加值+4。</p>\n<p>&emsp;&emsp;<strong>專長效果：</strong>以一個全回合動作，你能夠移動至多等同於你速度的距離並做一次單次的近戰攻擊，這不會觸發你所攻擊目標的藉機攻擊。你在攻擊之前和之後都可以移動，但你在攻擊前必須至少移動10尺，並且你移動的總距離不可以超過你的速度。你不可以使用此能力攻擊在你回合開始時就和你相鄰的敵人。</p>\n<p>&emsp;&emsp;<strong>通常情況：</strong>你不可以在攻擊之前和之後都移動。</p>"
		},
		{
			"id": "Trample",
			"name": "踐踏（Trample）",
			"description": "<i>&emsp;&emsp;你善於使用坐騎壓過對手。</i><hr>\n<p>&emsp;&emsp;<strong>先決條件：</strong>騎術1級、騎乘戰鬥。</p>\n<p>&emsp;&emsp;<strong>專長效果：</strong>若你騎乘坐騎時闖越對手，他將無法躲避。如果對手因而倒地，你的坐騎可以對他做一次蹄踢攻擊。一般而言攻擊倒地的目標，攻擊檢定有+4加值。</p>"
		},
		{
			"id": "Athletic",
			"name": "運動健將（Athletic）",
			"description": "<i>&emsp;&emsp;你擁有與生俱來的身體素質。</i><hr>\n<p>&emsp;&emsp;<strong>專長效果：</strong>對於攀爬和游泳檢定獲得+2獎勵。如果某技能受訓等級10以上，對於該技能檢定的獎勵為+4。</p>"
		},
		{
			"id": "Point-Blank Shot",
			"name": "近距射擊（Point-Blank Shot）",
			"description": "<i>&emsp;&emsp;你對遠程攻擊近程目標頗有心得。</i><hr>\n<p>&emsp;&emsp;<strong>專長效果：</strong>你使用遠程武器攻擊30尺內的目標時在攻擊和傷害檢定上獲得+1加值。</p>"
		},
		{
			"id": "Improved Familiar",
			"name": "進階魔寵（Improved Familiar）",
			"description": "<i>&emsp;&emsp;本專長使得施法者能夠從非標準列表中獲得一個強力魔寵，但僅當他們可以正常獲得一個新魔寵時才可使用本專長。</i><hr>\n<p>&emsp;&emsp;<strong>先決條件：</strong>有能力獲得新魔寵，陣營相符，足夠高的等級（見下）。</p>\n<p>&emsp;&emsp;<strong>專長效果：</strong>選擇魔寵時，施法者也可選擇下表中生物。施法者可選擇的魔寵在每個陣營軸線（即秩序到混亂、善良到邪惡）上分別至多隻能和本人相差一階。進階魔寵其他的規則都與普通魔寵相同，但有兩個例外：如果生物的類型不是動物，則其類型不改變；且強化的魔寵並不獲得與他們同類交談的能力（儘管他們中許多已具有交流的能力）。</p>"
		},
		{
			"id": "Far Shot",
			"name": "遠程射擊（Far Shot）",
			"description": "<i>&emsp;&emsp;你長距離射擊時比常人更準。</i><hr>\n<p>&emsp;&emsp;<strong>先決條件：</strong>近距射擊。</p>\n<p>&emsp;&emsp;<strong>專長效果：</strong>當你使用遠程武器時，距離每增加一個射程增量你僅受到-1減值。</p>\n<p>&emsp;&emsp;<strong>通常情況：</strong>你與目標之間距離每增加一個射程增量則受-2減值。</p>"
		},
		{
			"id": "Selective Channeling",
			"name": "選擇導能（Selective Channeling）",
			"description": "<i>&emsp;&emsp;你引導能量時能夠選擇要影響誰。</i><hr>\n<p>&emsp;&emsp;<strong>先決條件：</strong>魅力13，【引導能量】職業特性。</p>\n<p>&emsp;&emsp;<strong>專長效果：</strong>當你引導能量時，你可以選擇區域中數量至多等同於你魅力修正的目標。這些目標不受你引導能量的影響。</p>\n<p>&emsp;&emsp;<strong>通常情況：</strong>當你引導能量時，所有30尺爆發範圍內的目標都會受到影響。你只能選擇自己是否要受到影響。</p>"
		},
		{
			"id": "Stand Still",
			"name": "通行禁止（Stand Still）",
			"description": "<i>&emsp;&emsp;你能夠攔下試圖從你旁邊經過的敵人。</i><hr>\n<p>&emsp;&emsp;<strong>先決條件：</strong>戰鬥反射。</p>\n<p>&emsp;&emsp;<strong>專長效果：</strong>當一個敵人因經過你的鄰近區域而觸發藉機攻擊時，你可以做一次戰技檢定來做為藉機攻擊。如果成功，敵人在他回合的剩餘部分內不能移動。敵人仍然可以做他動作的剩餘部分，但就是不能移動。此專長也可應用於任何試圖從你相鄰區域移開的生物，如果該移動會觸發藉機攻擊。</p>"
		},
		{
			"id": "Master Craftsman",
			"name": "造物專家（Master Craftsman）",
			"description": "<i>&emsp;&emsp;你的非凡手藝令你能夠製造簡單的魔法物品。</i><hr>\n<p>&emsp;&emsp;<strong>先決條件：</strong>任意工藝或專業技能5級</p>\n<p>&emsp;&emsp;<strong>專長效果：</strong>選擇一項你擁有至少5級的工藝或專業技能，獲得+2加值。你所選技能的等級可作為你的CL，以滿足“製造魔法武器和防具”以及“製造奇物”專長的先決條件。你可以使用這些專長製造魔法物品，以你所選技能的等級作為你的總CL。你必須使用所選的技能進行製造該物品的檢定。某些必要的法術需求仍舊會令製造該物品的DC增加（更多信息請參見魔法物品規則）。你無法使用本專長製造任何法術觸髮型或法術完成型物品。【編注：魔杖屬於法術觸髮型物品，而卷軸則屬於法術完成型物品。】</p>\n<p>&emsp;&emsp;<strong>通常情況：</strong>只有施法者能夠選擇“製造魔法武器和防具”以及“製造奇物”專長。</p>"
		},
		{
			"id": "Critical Focus",
			"name": "重擊專攻（Critical Focus）",
			"description": "<i>&emsp;&emsp;你熟練於製造疼痛的藝術。</i><hr>\n<p>&emsp;&emsp;<strong>先決條件：</strong>基本攻擊加值+9。</p>\n<p>&emsp;&emsp;<strong>專長效果：</strong>在確定重擊的攻擊檢定中，獲得+4的環境加值。</p>"
		},
		{
			"id": "Critical Mastery",
			"name": "重擊熟稔（Critical Mastery）",
			"description": "<i>&emsp;&emsp;你的重擊能引發兩種重擊效果。</i><hr>\n<p>&emsp;&emsp;<strong>先決條件：</strong>重擊專攻，任意兩項重擊專長，戰士14級。</p>\n<p>&emsp;&emsp;<strong>專長效果：</strong>當你重擊時，你在造成傷害的同時可以引發兩項重擊專長的效果。</p>\n<p>&emsp;&emsp;<strong>通常情況：</strong>當你重擊時，你在製造傷害的同時只能引發一項重擊專長的效果。</p>"
		},
		{
			"id": "Iron Will",
			"name": "鋼鐵意志（Iron Will）",
			"description": "<i>&emsp;&emsp;你有超乎常人的堅強意志。</i><hr><p>&emsp;&emsp;專長效果：所有意志豁免獲得+2加值。</p>"
		},
		{
			"id": "Forge Ring",
			"name": "鍛造戒指（Forge Ring）",
			"description": "<i>&emsp;&emsp;你可以製造帶有各式魔法傚果的戒指。</i><hr>\n<p>&emsp;&emsp;<strong>先決條件：</strong>施法者等級7級。</p>\n<p>&emsp;&emsp;<strong>專長效果：</strong>你可以製造魔法戒指。鍛造一枚戒指需花費每1000gp基本價格1天的時間。要鍛造一枚戒指，你需要花費其基本價格一半的天然材料。更多信息請參見魔法物品規則。只要你有能力製造同樣的東西，便可以修復損壞的魔法戒指。你必須支付相當於製造時一半的耗材和時間。</p>"
		},
		{
			"id": "Lightning Reflexes",
			"name": "閃電反射（Lightning Reflexes）",
			"description": "<i>&emsp;&emsp;你的反應力比一般人快。</i><hr><p>&emsp;&emsp;專長效果：所有反射豁免獲得+2加值。</p>"
		},
		{
			"id": "Lightning Stance",
			"name": "閃電步（Lightning Stance）",
			"description": "<i>&emsp;&emsp;你移動起來的非凡速度令敵人難以攻擊。</i><hr>\n<p>&emsp;&emsp;<strong>先決條件：</strong>敏捷17，閃避，疾風步，基本攻擊加值+11。</p>\n<p>&emsp;&emsp;<strong>專長效果：</strong>若你在一輪中花費2個動作進行移動或一個撤退動作，則你在一輪中獲得50%隱蔽。</p>"
		},
		{
			"id": "Dodge",
			"name": "閃避（Dodge）",
			"description": "<i>&emsp;&emsp;你的訓練和反應令你能夠迅速閃避攻擊。</i><hr><p>&emsp;&emsp;先決條件：敏捷13。<br>專長效果：你可以在AC上獲得+1閃避加值。若你失去AC的敏捷加值時，也會同時失去此專長的加值。</p>"
		},
		{
			"id": "Defensive Combat Training",
			"name": "防禦式戰鬥訓練（Defensive Combat Training）",
			"description": "<i>&emsp;&emsp;你善於在面對各種戰技時保護自己。</i><hr>\n<p>&emsp;&emsp;<strong>專長效果：</strong>你在計算戰技防禦時可以用你的總生命骰數代替BAB。</p>"
		},
		{
			"id": "Alignment Channel",
			"name": "陣營導能（Alignment Channel）",
			"description": "<i>&emsp;&emsp;選擇混亂，邪惡，善良或是秩序陣營。你能引導神力來影響對應陣營的異界生物。</i><hr>\n<p>&emsp;&emsp;<strong>先決條件：</strong>引導能量能力</p>\n<p>&emsp;&emsp;<strong>專長效果：</strong>取代通常效果，你能選擇引導能量來治療或傷害一個特定陣營亞種的異界生物。你必須在每次引導能量時作出決定。若你選擇治療或傷害選定陣營亞種的異界生物，你的引導能量將不會對其他生物產生影響。治療和傷害量、以及豁免DC不做改變。</p>\n<p>&emsp;&emsp;<strong>特殊說明：</strong>你可以多次選擇本專長，效果並不疊加。每次選擇本專長時，可以選擇一個新的陣營。當你引導能量時，你必須決定影響哪個陣營。</p>"
		},
		{
			"id": "Throw Anything",
			"name": "隨手投擲（Throw Anything）",
			"description": "<i>&emsp;&emsp;你擅長投擲手中的物品。</i><hr>\n<p>&emsp;&emsp;<strong>專長效果：</strong>你使用臨時遠程武器時無減值。你在濺射武器的攻擊檢定上獲得+1環境加值。</p>\n<p>&emsp;&emsp;<strong>通常情況：</strong>你在使用臨時武器時攻擊檢定受-4減值。</p>"
		},
		{
			"id": "Catch Off-Guard",
			"name": "隨手武器（Catch Off-Guard）",
			"description": "<i>&emsp;&emsp;你的敵人驚訝於你能熟練使用各種非常規武器和臨時武器。</i><hr>\n<p>&emsp;&emsp;<strong>專長效果：</strong>在你使用臨時武器進行近戰攻擊時不會受到任何懲罰。未武裝的敵人對於你的臨時近戰武器攻擊視為措手不及。</p>\n<p>&emsp;&emsp;<strong>通常情況：</strong>當你使用臨時武器時在攻擊檢定時受到-4的減值。</p>"
		},
		{
			"id": "Stealthy",
			"name": "隱秘（Stealthy）",
			"description": "<i>&emsp;&emsp;你對避開不必要的注意和逃脫束縛很拿手。</i><hr>\n<p>&emsp;&emsp;<strong>專長效果：</strong>你在所有脫逃和隱匿技能檢定上獲得+2加值。如果某技能受訓等級10以上，該技能獲得的加值提升為+4。</p>"
		},
		{
			"id": "Stunning Fist",
			"name": "震懾拳（Stunning Fist）",
			"description": "<i>&emsp;&emsp;你知道攻擊哪裡可以暫時癱瘓一個人的行動。</i><hr><p>&emsp;&emsp;<strong>先決條件：</strong>敏捷13，感知13，精通徒手打擊，基本攻擊加值+8。</p><p>&emsp;&emsp;<strong>專長效果：</strong>你必須在投擲攻擊骰之前宣告使用此專長（因此，未命中會導致嘗試失敗）。震懾拳在正常造成傷害的同時，還會強制受到你徒手擊打傷害的敵人進行一次DC為“10+1/2你的角色等級+感知修正”的強韌豁免檢定。豁免檢定失敗的防禦者將被震懾1輪（直到你的下一輪開始前）。被震懾的人物不能行動，失去AC上的任何敏捷加值，並且AC承受-2減值。每4級你每天可以多嘗試一次震懾攻擊（見特殊），每輪不能超過1次。構裝、泥怪、植物、不死、虛體生物和免疫重擊的生物不會被震懾。</p><p>&emsp;&emsp;<strong>特殊說明：</strong>武僧1級時獲得“震懾拳”做為獎勵專長，即使他不滿足所需先決條件。武僧每天可嘗試的震懾攻擊的次數等同於他的武僧等級，再加上每天每4個非武僧職業等級1次。</p>"
		},
		{
			"id": "Stunning Critical",
			"name": "震懾重擊（Stunning Critical）",
			"description": "<i>&emsp;&emsp;你的重擊能震懾對手。</i><hr>\n<p>&emsp;&emsp;<strong>先決條件：</strong>重擊專攻，恍惚重擊，基本攻擊加值+17。</p>\n<p>&emsp;&emsp;<strong>專長效果：</strong>每當你造成重擊時，你的對手被震懾1d4輪。一次成功的強韌豁免將此效果降為恍惚1d4輪。強韌豁免的DC等於“10+你的BAB”。此專長的效果不會疊加。額外的命中改為延長持續時間。</p>\n<p>&emsp;&emsp;<strong>特殊說明：</strong>在沒有掌握“重擊熟稔”專長前，每次重擊時你只能選擇一種重擊專長效果。</p>"
		},
		{
			"id": "Cleave",
			"name": "順勢斬（Cleave）",
			"description": "<i>&emsp;&emsp;你揮動一次武器，命中兩個相鄰的敵人</i><hr>\n<p>&emsp;&emsp;<strong>先決條件：</strong>力量13，猛力攻擊，基本攻擊加值+1。</p>\n<p>&emsp;&emsp;<strong>專長效果：</strong>每輪1次，以一個標準動作，你可以對攻擊範圍內的一個敵人以最高BAB進行一次攻擊。若命中，在正常傷害的同時，你還能對攻擊範圍內、與其相鄰的另一敵人再進行一次最高BAB攻擊。若你這麼做，在你下輪動作之前，會遭受AC-2的懲罰。</p>"
		},
		{
			"id": "Diehard",
			"name": "頑強（Diehard）",
			"description": "<i>&emsp;&emsp;你尤其難以被殺掉。你不但在受到極其嚴重的傷害時傷勢會自動穩定下來，還能夠保持清醒並繼續行動，即便已經摸到了死亡的門坎。</i><hr>\n<p>&emsp;&emsp;<strong>先決條件：</strong>堅忍。</p>\n<p>&emsp;&emsp;<strong>專長效果：</strong>當HP降至0以下，但還沒有死亡時，你可以自動穩定傷勢，不須每回合作體質檢定避免HP流失。你可以選擇如同癱瘓狀態一般行動，而非瀕死。你必須在HP降至負數時立刻決定是否採取癱瘓狀態的動作，若否，你將立刻陷入昏迷。使用本專長時，你視同恍惚狀態。你每輪可以進行一次移動動作且不受任何額外傷害，但標準動作（或任何其他費力的行動，包括某些迅捷動作，例如施展瞬發法術）將使你在動作完成受到1點傷害。當你的HP負值降至等於或超過你的體質值，你將立刻死亡。</p>\n<p>&emsp;&emsp;<strong>通常情況：</strong>沒有本專長的人物在HP降至負值時為昏迷且瀕死狀態。</p>"
		},
		{
			"id": "Leadership",
			"name": "領導力（Leadership）",
			"description": "<i>&emsp;&emsp;你是他人追隨的對象，對於招募部屬也有相當的研究。</i><hr>\n<p>&emsp;&emsp;<strong>先決條件：</strong>角色等級7。</p>\n<p>&emsp;&emsp;<strong>專長效果：</strong>你能吸引一個忠心的部屬及許多追隨者來協助你。部屬通常是一名擁有職業等級的NPC，而追隨者則為更低等級的NPC。查看下表確認你能夠吸引到的部屬等級和追隨者數量。</p>"
		},
		{
			"id": "Extra Lay On Hands",
			"name": "額外聖療（Extra Lay On Hands）",
			"description": "<i>&emsp;&emsp;你可以更頻繁的使用聖療能力。</i><hr>\n<p>&emsp;&emsp;<strong>先決條件：</strong>【聖療】職業特性。</p>\n<p>&emsp;&emsp;<strong>專長效果：</strong>你每日可以多使用聖療2次。</p>\n<p>&emsp;&emsp;<strong>特殊說明：</strong>你可以多次選擇本專長，其效果累計。</p>"
		},
		{
			"id": "Extra Channel",
			"name": "額外引導（Extra Channel）",
			"description": "<i>&emsp;&emsp;你能更頻繁地引導能量。</i><hr>\n<p>&emsp;&emsp;<strong>先決條件：</strong>【引導能量】職業特性。</p>\n<p>&emsp;&emsp;<strong>專長效果：</strong>你每日能夠多引導能量2次。</p>\n<p>&emsp;&emsp;<strong>特殊說明：</strong>若一名擁有引導能量能力的聖騎士選擇本專長，則她可以每日多使用4次聖療，但僅能用於引導正能量。</p>"
		},
		{
			"id": "Extra Mercy",
			"name": "額外恩惠（Extra Mercy）",
			"description": "<i>&emsp;&emsp;你的聖療能力額外獲得一種恩惠。</i><hr>\n<p>&emsp;&emsp;<strong>先決條件：</strong>【聖療】職業特性，【恩惠】職業特性。</p>\n<p>&emsp;&emsp;<strong>專長效果：</strong>選擇一種你能夠使用的額外恩惠。當你使用聖療為一個目標治療傷害時，目標額外獲得該恩惠的效果。</p>\n<p>&emsp;&emsp;<strong>特殊說明：</strong>你可以多次選擇本專長，其效果不累計。每次你選擇本專長時，選擇一個新的恩惠。</p>"
		},
		{
			"id": "Extra Ki",
			"name": "額外鬥氣（Extra Ki）",
			"description": "<i>&emsp;&emsp;你每日可以更頻繁地使用氣池。</i><hr>\n<p>&emsp;&emsp;<strong>先決條件：</strong>【氣運丹田】職業特性。</p>\n<p>&emsp;&emsp;<strong>專長效果：</strong>你的氣池增加2點。</p>\n<p>&emsp;&emsp;<strong>特殊說明：</strong>你可以多次選擇本專長，其效果累計。</p>"
		},
		{
			"id": "Extra Rage",
			"name": "額外狂暴（Extra Rage）",
			"description": "<i>&emsp;&emsp;你可以更久地狂暴。</i><hr>\n<p>&emsp;&emsp;<strong>先決條件：</strong>【狂暴】職業特性。</p>\n<p>&emsp;&emsp;<strong>專長效果：</strong>你可以每日多狂暴6輪。</p>\n<p>&emsp;&emsp;<strong>特殊說明：</strong>你可以多次選擇本專長，其效果累計。</p>"
		},
		{
			"id": "Extra Performance",
			"name": "額外表演（Extra Performance）",
			"description": "<i>&emsp;&emsp;你可以更頻繁的使用吟遊表演能力。</i><hr><p>&emsp;&emsp;<strong>先決條件：</strong>【吟遊表演】職業特性。</p><p>&emsp;&emsp;<strong>專長效果：</strong>你每日能夠多使用吟遊表演6輪。</p><p>&emsp;&emsp;<strong>特殊說明：</strong>你可以多次選擇本專長，其效果累計。</p>"
		},
		{
			"id": "Run",
			"name": "飛跑（Run）",
			"description": "<i>&emsp;&emsp;你是個飛毛腿。</i><hr>\n<p>&emsp;&emsp;<strong>專長效果：</strong>奔跑時，你移動正常速度的五倍（如果穿著中甲、輕甲或無甲並且沒有超過中載）或四倍（如果穿著重甲或重載）。如果你助跑後再跳躍（見特技技能說明），你在雜技檢定上獲得+4加值。奔跑時，你保留敏捷加值到你的AC上。</p>\n<p>&emsp;&emsp;<strong>通常情況：</strong>奔跑時，你移動正常速度的四倍（如果穿著中甲、輕甲或無甲並且沒有超過中載）或三倍（如果穿著重甲或重載），並且你失去AC上的敏捷加值。</p>"
		},
		{
			"id": "Turn Undead",
			"name": "驅散死靈（Turn Undead）",
			"description": "<i>&emsp;&emsp;你釋放出神聖能量，令不死生物逃竄。</i><hr>\n<p>&emsp;&emsp;<strong>先決條件：</strong>【引導正能量】職業特性。</p>\n<p>&emsp;&emsp;<strong>專長效果：</strong>你可以用一個標準動作，消耗你引導正能量的1次可用次數，令30尺內的所有不死生物逃離你，視同陷入恐慌狀態。不死生物需要通過意志檢定來避免此效果，DC等於“10+1/2牧師等級+魅力修正”。豁免失敗的不死生物會逃竄1分鐘。有智力的不死生物可以每輪進行新的檢定以結束此效果。若你以此方式使用引導能量，則其不會產生其他的效果（不會治療或傷害附近的生物）。</p>"
		},
		{
			"id": "Mounted Archery",
			"name": "騎乘射擊（Mounted Archery）",
			"description": "<i>&emsp;&emsp;你善於在騎乘時使用遠程武器。</i><hr>\n<p>&emsp;&emsp;<strong>先決條件：</strong>騎術1級，騎乘戰鬥。</p>\n<p>&emsp;&emsp;<strong>專長效果：</strong>在騎乘時使用遠程武器的減值減為一半。例如，當坐騎以倍速移動時，減值為-2而非-4。坐騎奔跑時，減值為-4而非-8。</p>"
		},
		{
			"id": "Mounted Combat",
			"name": "騎乘戰鬥（Mounted Combat）",
			"description": "<i>&emsp;&emsp;你善於騎乘戰鬥。</i><hr>\n<p>&emsp;&emsp;<strong>先決條件：</strong>騎術1級。</p>\n<p>&emsp;&emsp;<strong>專長效果：</strong>坐騎被擊中時，你可以做一次騎術檢定（視為直覺動作），若檢定結果大於對手的攻擊檢定，則該攻擊無效。此專長每輪只能使用1次。</p>"
		},
		{
			"id": "Ride-By Attack",
			"name": "騎乘掠擊（Ride-By Attack）",
			"description": "<i>&emsp;&emsp;騎乘衝鋒時，你能夠移動，攻擊，然後繼續移動。</i><hr><p>&emsp;&emsp;<strong>先決條件：</strong>騎術1級，騎乘戰鬥。</p><p>&emsp;&emsp;<strong>專長效果：</strong>騎乘衝鋒時，你可以如同標準衝鋒一樣移動並攻擊，然後再次移動（沿著衝鋒的直線路徑）。你該輪總的移動距離不能超過騎乘速度的兩倍。你和你的坐騎不會觸發你所攻擊目標的藉機攻擊。</p>"
		},
		{
			"id": "Greater Bull Rush",
			"name": "高等衝撞（Greater Bull Rush）",
			"description": "<i>&emsp;&emsp;你的衝撞令敵人失去平衡。</i><hr>\n<p>&emsp;&emsp;<strong>先決條件：</strong>精通衝撞，猛力攻擊，基本攻擊加值+6，力量13。</p>\n<p>&emsp;&emsp;<strong>專長效果：</strong>你在衝撞檢定中獲得+2加值。此加值與“精通衝撞”專長帶來的加值累計。當你衝撞敵人時，他的移動會引發所有你的同伴的藉機攻擊（但不包括你）。</p>\n<p>&emsp;&emsp;<strong>通常情況：</strong>衝撞帶來的生物移動不會引發藉機攻擊。</p>"
		},
		{
			"id": "Greater Disarm",
			"name": "高等卸武（Greater Disarm）",
			"description": "<i>&emsp;&emsp;你可以將敵人手中的武器擊飛。</i><hr>\n<p>&emsp;&emsp;<strong>先決條件：</strong>寓守於攻，精通卸武，基本攻擊加值+6，智力13。</p>\n<p>&emsp;&emsp;<strong>專長效果：</strong>你在卸武檢定中獲得+2加值，此加值與“精通卸武”專長帶來的加值累計。每當你成功卸除敵人武器時，該武器由其持有者位置向隨機方向飛出15尺。</p>\n<p>&emsp;&emsp;<strong>通常情況：</strong>被卸除的武器和裝備落在被卸除的生物腳下。</p>"
		},
		{
			"id": "Greater Two-Weapon Fighting",
			"name": "高等雙武器格鬥（Greater Two-Weapon Fighting）",
			"description": "<i>&emsp;&emsp;你是雙武器戰鬥的高手。</i><hr>\n<p>&emsp;&emsp;<strong>先決條件：</strong>敏捷19，精通雙武器格鬥，雙武器格鬥，基本攻擊加值+11。</p>\n<p>&emsp;&emsp;<strong>專長效果：</strong>你可使用副手武器作第三次攻擊，但受到-10減值。</p>"
		},
		{
			"id": "Greater Grapple",
			"name": "高等擒抱（Greater Grapple）",
			"description": "<i>&emsp;&emsp;維持擒抱是你的第二天性。</i><hr>\n<p>&emsp;&emsp;<strong>先決條件：</strong>精通擒抱，精通徒手打擊，基本攻擊加值+6，敏捷13。</p>\n<p>&emsp;&emsp;<strong>專長效果：</strong>你在擒抱檢定中獲得+2加值，此加值與“精通擒抱”專長帶來的加值累計。每當你成功擒抱一個生物，維持擒抱是一個移動動作。本專長允許你每輪進行兩次擒抱檢定（移動、傷害或壓製你的對手），但你僅需要檢定成功其中一次便可以維持擒抱。</p>\n<p>&emsp;&emsp;<strong>通常情況：</strong>維持擒抱是一個標準動作。</p>"
		},
		{
			"id": "Greater Weapon Focus",
			"name": "高等武器專攻（Greater Weapon Focus）",
			"description": "<i>&emsp;&emsp;從已有“武器專攻”的武器類型中選擇一個，也可以選徒手擊打或擒抱，對此種武器你是個中高手。</p>\n<p>&emsp;&emsp;<strong>先決條件：</strong>對應武器的擅長武器、武器專攻，戰士等級8。</p>\n<p>&emsp;&emsp;<strong>專長效果：</strong>使用特定武器時攻擊檢定+1。此加值可與其他攻擊加值累加，包括“武器專攻”的加值。</p>\n<p>&emsp;&emsp;<strong>特殊說明：</strong>你可以多次選擇本專長，但並非累加效果；每次選擇本專長時需選擇一個新的武器類型。</p>"
		},
		{
			"id": "Greater Weapon Specialization",
			"name": "高等武器專精（Greater Weapon Specialization）",
			"description": "<i>&emsp;&emsp;從已有“武器專精”的武器中選擇一個，也可以選徒手擊打或擒抱，使用此種武器將可造成更多傷害。</p>\n<p>&emsp;&emsp;<strong>先決條件：</strong>對應武器的擅長武器、武器專攻、高等專攻、武器專精，戰士等級12。</p>\n<p>&emsp;&emsp;<strong>專長效果：</strong>使用特定武器時傷害+2，且可與其他傷害加值累加，包括“武器專精”的加值。</p>\n<p>&emsp;&emsp;<strong>特殊說明：</strong>你可以多次選擇本專長，但並非累加效果；每次選擇本專長時需選擇一個新的武器類型。</p>"
		},
		{
			"id": "Greater Spell Focus",
			"name": "高等法術專攻（Greater Spell Focus）",
			"description": "<i>&emsp;&emsp;從已有“法術專攻”的法術學派中選擇一個，你施展的該學派的法術很難被抵抗。</i><hr>\n<p>&emsp;&emsp;<strong>先決條件：</strong>法術專攻。</p>\n<p>&emsp;&emsp;<strong>專長效果：</strong>所選學派的法術豁免檢定DC+1。此加值可與“法術專攻”累加。</p>\n<p>&emsp;&emsp;<strong>特殊說明：</strong>你可以多次選擇本專長，但並非累加效果。每次你選擇本專長時必須選擇一個新的已有“專攻法術”專長的不同學派。</p>"
		},
		{
			"id": "Greater Spell Penetration",
			"name": "高等法術穿透（Greater Spell Penetration）",
			"description": "<i>&emsp;&emsp;你的法術威力強大，較易穿透法術抗力。</i><hr>\n<p>&emsp;&emsp;<strong>先決條件：</strong>法術穿透。</p>\n<p>&emsp;&emsp;<strong>專長效果：</strong>施法時若受術者有法術抗力，你的施法者等級檢定（1d20+CL）可獲得+2加值。此加值可與“法術穿透”累加。</p>"
		},
		{
			"id": "Greater Shield Focus",
			"name": "高等盾牌專攻（Greater Shield Focus）",
			"description": "<i>&emsp;&emsp;你擅長用盾牌擋開攻擊</i><hr>\n<p>&emsp;&emsp;<strong>先決條件：</strong>盾牌專攻，擅長盾牌，基本攻擊加值+1，戰士等級8。</p>\n<p>&emsp;&emsp;<strong>專長效果：</strong>任何盾牌帶來的AC加值增加1。此加值與“盾牌專攻”帶來的加值累計。</p>"
		},
		{
			"id": "Greater Sunder",
			"name": "高等破武（Greater Sunder）",
			"description": "<i>&emsp;&emsp;你可以自由攻擊被你擊倒的對手。</i><hr>\n<p>&emsp;&emsp;<strong>先決條件：</strong>精通破武，猛力攻擊，基本攻擊加值+6，力量13。</p>\n<p>&emsp;&emsp;<strong>專長效果：</strong>你的破武檢定獲得+2加值，此加值與“精通破武”專長帶來的加值累計。每當你令一把武器、盾牌或盔甲徹底損毀時，其持用者將承受多餘的傷害部分。若你決定令物品剩餘1點HP則不會有任何傷害被傳遞。</p>"
		},
		{
			"id": "Greater Penetrating Strike",
			"name": "高等穿透打擊（Greater Penetrating Strike）",
			"description": "<i>&emsp;&emsp;你的攻擊能夠穿透大多數敵人的防禦。選擇一個已在穿透打擊專長中選擇過的武器類型。</i><hr>\n<p>&emsp;&emsp;<strong>先決條件：</strong>穿透打擊，武器專攻，戰士等級16。</p>\n<p>&emsp;&emsp;<strong>專長效果：</strong>你用選擇類型的武器攻擊時忽略最高10點傷害減免。但對不針對特定類型的傷害減免時，效果減少到5點（例如“10/-”）。</p>"
		},
		{
			"id": "Greater Trip",
			"name": "高等絆摔（Greater Trip）",
			"description": "<i>&emsp;&emsp;你可以自由攻擊被你擊倒的對手。</i><hr>\n<p>&emsp;&emsp;<strong>先決條件：</strong>寓守於攻，精通絆摔，基本攻擊加值+6，智力13。</p>\n<p>&emsp;&emsp;<strong>專長效果：</strong>你的絆摔檢定獲得+2加值，此加值與“精通絆摔”專長帶來的加值累計。每當你成功絆摔一個敵人時，該敵人會引發藉機攻擊。</p>\n<p>&emsp;&emsp;<strong>通常情況：</strong>生物不會因被絆摔而引發藉機攻擊。</p>"
		},
		{
			"id": "Greater Feint",
			"name": "高等虛招（Greater Feint）",
			"description": "<i>&emsp;&emsp;你擅長令敵人對你的攻擊反應過度。</i><hr>\n<p>&emsp;&emsp;<strong>先決條件：</strong>寓守於攻，精通虛招，基本攻擊加值+6，智力13。</p>\n<p>&emsp;&emsp;<strong>專長效果：</strong>當你對敵人使用虛招令其失去AC的敏捷加值時，他直到下輪你的行動開始時都失去該加值，而不是原本的僅持續到你的下一次攻擊。</p>\n<p>&emsp;&emsp;<strong>通常情況：</strong>被你的虛招誤導的生物失去AC的敏捷加值，直到你的下一次攻擊。</p>"
		},
		{
			"id": "Greater Vital Strike",
			"name": "高等要害打擊（Greater Vital Strike）",
			"description": "<i>&emsp;&emsp;你在一擊中造成不可思議的巨大傷害。</i><hr>\n<p>&emsp;&emsp;<strong>先決條件：</strong>精通要害打擊、要害打擊、基本攻擊加值+16</p>\n<p>&emsp;&emsp;<strong>專長效果：</strong>你可以用一個標準動作以你的最高BAB做出一次攻擊，並造成額外的傷害。丟傷害骰四次並將結果合計，但力量、武器屬性（例如〔熾焰〕附魔）及基於精準的攻擊（例如偷襲）帶來的傷害則不翻倍。本專長帶來的額外傷害在重擊時不翻倍（儘管其他傷害加值正常翻倍計算）。</p>"
		},
		{
			"id": "Greater Overrun",
			"name": "高等闖越（Greater Overrun）",
			"description": "<i>&emsp;&emsp;敵人必須匆忙閃開以躲避你的危險移動。</i><hr>\n<p>&emsp;&emsp;<strong>先決條件：</strong>精通闖越，猛力攻擊，基本攻擊加值+6，力量13。</p>\n<p>&emsp;&emsp;<strong>專長效果：</strong>你在闖越敵人檢定上獲得+2加值，本加值與“精通闖越”專長帶來的加值累計。當你闖越敵人時，他們若被你撞倒則會引發藉機攻擊。</p>\n<p>&emsp;&emsp;<strong>通常情況：</strong>被闖越撞倒的生物不會引發藉機攻擊。</p>"
		},
		{
			"id": "Magical Aptitude",
			"name": "魔法天賦（Magical Aptitude）",
			"description": "<i>&emsp;&emsp;你在釋放魔法和使用魔法物品方面有資質。</i><hr>\n<p>&emsp;&emsp;<strong>專長效果：</strong>你的法術辨識與使用魔法裝置檢定獲得+2加值。如果某技能受訓等級10以上，則對應的加值改為+4。</p>"
		}
	]
}