{
	"label": "神話冒險",
	"entries": [
		{
			"id": "(Mythic) Archmage",
			"name": "(神話) 大法師（(Mythic) Archmage）",
			"description": "<h1>大法師</h1>\n<p>對於大多數使用奧術之藝的人來說，學習魔法需要進行大量的研究與實踐。即便對那些由血脈中汲取力量的人來說，也需要付出極大的努力。但是這並不適用於大法師。這些奧術之主從現實的架構之中獲取力量，輕而易舉地獲取編織魔法的技巧。<br><br>大法師是使用奧術的宗師，這條神話之道中有許多能力能夠增強你施放奧術的能力、或者大大強化它們的效能。此外，這條道途還會提供選項增強法術知識，強化使用法術之人的學識。在達到最高的階層後，你便能推翻不同類型法術之間的壁壘，甚至能夠改變現實世界自身的架構。<br><br>定位（Role）：作為大法師，你會利用能力將強大的力量賦予自身的奧術魔法，使它們能夠突破防禦並消弱敵人。你所掌握的奧術技藝以及你那無邊的學識會為隊伍中的提起談提供巨大的優勢，你在充分利用魔法物品上的天資可以說是無價之寶。儘管你在防禦技巧上並不會得到太多提升，但是你那無與倫比的進攻能力會彌補這點微不足道的劣勢——不過你仍舊應當避免進行接近戰。<br><br>職業（Classes）：對於那些能夠施放奧術的角色來說——特別是術士與法師——大法師是最為常見的道途選擇。吟遊詩人、召喚師與女巫也能在這條道途中找到大量有用的選項，不過其他道途對她們來說也具有一定的實用性。<br><br>獎勵生命值（Bonus Hit Points）：每當你在大法師之道中獲得階層，你會得到3點獎勵生命值。這些生命值會疊加，而且不會影響你的生命骰或者其他能力。</p>\n<h2>道途特性</h2>\n<div>\n<table>\n<tbody>\n<tr>\n<td>神話階層</td>\n<td>道途特性</td>\n</tr>\n<tr>\n<td>1階</td>\n<td>大法師奧秘, 道途能力</td>\n</tr>\n<tr>\n<td>2nd</td>\n<td>道途能力</td>\n</tr>\n<tr>\n<td>3階</td>\n<td>道途能力</td>\n</tr>\n<tr>\n<td>4階</td>\n<td>道途能力</td>\n</tr>\n<tr>\n<td>5階</td>\n<td>道途能力</td>\n</tr>\n<tr>\n<td>6階</td>\n<td>道途能力</td>\n</tr>\n<tr>\n<td>7階</td>\n<td>道途能力</td>\n</tr>\n<tr>\n<td>8階</td>\n<td>道途能力</td>\n</tr>\n<tr>\n<td>9階</td>\n<td>道途能力</td>\n</tr>\n<tr>\n<td>10階</td>\n<td>道途能力, 究極大法師</td>\n</tr>\n</tbody>\n</table>\n</div>\n<p>隨著你的階層獲得提升，你會獲得後述能力。<br><br>大法師奧秘（Archmage Arcana）：從後述能力中選擇一種。一旦做出選擇就無法進行更改。<br><br>奧能涌動（Arcane Surge，Su）：以迅捷動作，你能夠花費1次神話之力來施放任何奧術，而不會消耗已準備的法術或法術位。若你是準備施法者，該法術必須是你在當天所準備的法術之一（即便你已經施放了也可以）；若你是自發施法者，該法術就必須是你的已知法術之一。若這個法術需要進行豁免，任何被該法術影響的非神話生物需要進行兩次豁免並取較低值。若你必須為了克服生物的法術抗力而嘗試施法者等級檢定的話，你能夠進行兩次施法者等級檢定（兩次都加上你的階層）並取較高值。你不能將超魔專長應用到以此能力施放的法術上。<br><br>術者之擊（Mage Strike，Su）：以迅捷動作，你能夠花費1次神話之力進行1次近戰攻擊。這不會算作你在該輪做出的任何其他攻擊的範疇。若你花費1個已經準備的奧術或者1個還未使用的法術位，那麼你的攻擊檢定便會獲得加值，價值等同於法術或法術位的等級，並且此次攻擊會造成額外能量傷害（在強酸、寒冷、閃電或火焰中自行選擇），能量傷害的數值為被花費的法術或法術位的等級乘以2d6點。該次攻擊的正常傷害會穿透所有傷害減免，但是能量傷害仍舊會受到抗力與免疫的影響。<br><br>狂野奧術（Wild Arcana，Su）：以迅捷動作，你能夠花費1次神話之力來施放任何奧術，而不會消耗已準備的法術或法術位。該法術必須在你的奧術職業法術列表中，而且法術等級必須是你所具有的奧術施法職業所能夠施展的等級，此外施法時間必須為“標準動作”（或更快）。你不需要準備該法術，它也不需要在你的已知法術列表中。當你以此方式施放法術時，在判斷所有與等級相關的作用時，將你的施法者等級視為比正常高2級。你能夠將任何自身已知的超魔專長應用到該法術上，不過修正後的總等級不能高於你所具有的這個施法職業所能施展的最高等級的奧術。<br><br>道途能力（Path Ability）：1級以及之後的每個神話階層，你都能從大法師道途能力或者通用道途能力中選擇1項新的道途能力。一旦你做出選擇，便無法更改。除非另有說明，否則每個能力都只能選取1次。部分能力有先決條件，比如職業能力或者最低神話階層，你必須滿足這些先決條件才能選取它們。<br><br>究極大法師（True Archmage，Ex）：在第10階，每當你以1名或更多個非神話生物施放奧術時，這些生物在對抗法術所進行的任何豁免都必須進行兩次檢定並取較低值。你獲得法術抗力，數值等同於15 + 你的最高奧術施法者等級，但是隻針對奧術有效。每輪1次，當你的法術抗力在1名敵對神話生物所施放的法術下保護了你時，你會恢復1次神話之力使用次數。</p>"
		},
		{
			"id": "(Mythic) Champion",
			"name": "(神話) 鬥士（(Mythic) Champion）",
			"description": "<p>鬥士使用武器與護甲的技藝達到了登峰造極的程度。任何凡人戰士在使用在刀劍，弓矢與戰斧的技藝上，任何凡人武夫都無法與充盈著神力的鬥士匹敵。鬥士只需要一個動作，就能夠偏轉刀刃、粉碎盾牌，而宛若混沌的戰場仿佛成為了為鬥士展示優雅武技而設置的舞台。當戰敗之敵的哀嚎聲逐漸消逝的時候，鬥士仍會屹立於大地之上，身披浴血的戰鎧進行挑釁，揮舞手中的武器發出可怕的戰嚎。<br /><br />定位（Role）：作為鬥士，你的作用是與敵人作戰。使用破壞性的近戰力量，你能夠在敵人有機會傷害你或者你的盟友之前粉碎他們。很少有人能夠擁有與你匹敵的武器技巧，或者具備與你同等的能力來使用驚人的力量技藝。鬥士能力使你能夠限制敵人、輕鬆地穿越戰場、以及一次性挑戰大量敵人。隊伍中的其他人可以指望你來主宰任何由你參與的接近戰。<br /><br />職業（Classes）：儘管幾乎任何職業的成員都能夠成為鬥士，不過那些專攻近戰的職業——野蠻人、騎士、戰士、武僧、聖武士以及游俠——會發現這條道途的能力最有吸引力，也最實用。不過即便是魔戰士或者盜賊，也可以在鬥士之道中找到優秀的方式來強化自身的能力。<br /><br />獎勵生命值（Bonus Hit Points）：每當你在鬥士之道中獲得階層，你會得到5點獎勵生命值。這些生命值會疊加，而且不會影響你的生命骰或者其他能力。</p>\n<h2>道途特性</h2>\n<div>\n<table>\n<tbody>\n<tr>\n<td>神話階層</td>\n<td>道途特性</td>\n</tr>\n<tr>\n<td>1階</td>\n<td>鬥士之擊, 道途能力</td>\n</tr>\n<tr>\n<td>2nd</td>\n<td>道途能力</td>\n</tr>\n<tr>\n<td>3階</td>\n<td>道途能力</td>\n</tr>\n<tr>\n<td>4階</td>\n<td>道途能力</td>\n</tr>\n<tr>\n<td>5階</td>\n<td>道途能力</td>\n</tr>\n<tr>\n<td>6階</td>\n<td>道途能力</td>\n</tr>\n<tr>\n<td>7階</td>\n<td>道途能力</td>\n</tr>\n<tr>\n<td>8階</td>\n<td>道途能力</td>\n</tr>\n<tr>\n<td>9階</td>\n<td>道途能力</td>\n</tr>\n<tr>\n<td>10階</td>\n<td>傳說鬥士, 道途能力</td>\n</tr>\n</tbody>\n</table>\n</div>\n<p>隨著你的階層獲得提升，你會獲得後述能力。<br /><br />鬥士之擊（Champion's Strike）：從後述能力中選擇一種。一旦做出選擇就無法進行更改。<br /><br />遠程彈幕（Distant Barrage，Ex）：以迅捷動作，你能夠花費1次神話之力並以你的最高攻擊加值進行一次遠程攻擊。此次攻擊不算在你在本輪做出的任何其他攻擊之內。當你進行此次攻擊時，穿透目標所具有的掩蔽和隱蔽（除全掩蔽之外），並將你的階層加到攻擊檢定上。此次攻擊所造成的傷害能穿透任何傷害減免。<br /><br />飛掠衝刺（Fleet Charge，Ex）：以迅捷動作，你能夠花費1次神話之力並進行移動，移動距離最多與你的速度相同。在這次移動中的任意一點，你能夠以最高的攻擊加值進行一次近戰或遠程攻擊，並將你的階層加到攻擊檢定上。此次攻擊不算在你在本輪做出的任何其他攻擊之內。此次攻擊所造成的傷害能穿透任何傷害減免。<br /><br />迅猛一擊（Sudden Attack，Ex）：以迅捷動作，你能夠花費1次神話之力並以最高的攻擊加值進行一次近戰攻擊。此次攻擊不算在你在本輪做出的任何其他攻擊之內。當你進行迅猛一擊時，你做兩次檢定並取高，將你的階層加到攻擊檢定上。此次攻擊所造成的傷害能穿透任何傷害減免。<br /><br />道途能力: 1級以及之後的每個神話階層，你都能從鬥士道途能力或者通用道途能力中選擇1項新的道途能力。一旦你做出選擇，便無法更改。除非另有說明，否則每個能力都只能選取1次。部分能力有先決條件，比如職業能力或者最低神話階層，你必須滿足這些先決條件才能選取它們。<br /><br />傳說鬥士（Legendary Champion，Ex）：在第10階，每當你對非神話敵人進行攻擊檢定並且失手時，你可以立刻重擲檢定。你必須接受第二次檢定，即便結果更糟。每輪1次，當你在攻擊檢定中投出自然20時，你會恢復1次神話之力。</p>"
		},
		{
			"id": "(Mythic) Guardian",
			"name": "(神話) 守護者（(Mythic) Guardian）",
			"description": "<p>並非所有神話角色都在追求屬於自己的榮耀與名望。一些神話角色選擇了更為謙卑的道途，守護著他們重要的人或者被稱作家園的地方。守護者尋找著自己與周圍事物，即使是野獸，之間的聯繫，並憑藉對彼此之間契約的信任分享自己的力量。這不意味著守護者都是喜好和平的，事實上許多守護者以暴力手段促進目標的實現並守護他們看顧的人。但是守護者覺得為了與他們一同旅行的人這樣做是值得的。在戰場上，沒有人能像守護者那樣承受毒打和傷害。<br><br>定位（Role）：你在其他人撤退時堅守陣地。你的位置是戰場的最前方，承受敵人打出的每一擊，並挑釁他們多來一點。你的任務是讓自己插入危險的路徑以阻止敵人推進。你樂於承受野蠻的折磨，並還之以狂熱的痛擊。你所承受的傷害足以殺死那些不那麼堅強的英雄，但你享受戰鬥的刺激，堅信你完美的肉體和心靈足以將戰鬥導向勝利。<br><br>職業（Classes）：任何經常置身於混亂肉搏中的職業，都能在守護者之道中找到有價值的能力。野蠻人，騎士，戰士，審判官，武以及聖武士都可以成為優秀的守護者。一些守護者能力則能增益德魯伊，游俠乃至召喚師的動物夥伴和盟友。<br><br>獎勵生命值（Bonus Hit Points）：每當你在守護者之道中獲得階層，你會得到5點獎勵生命值。這些生命值會疊加，而且不會影響你的生命骰或者其他能力。</p>\n<h2>道途特性</h2>\n<div>\n<table>\n<tbody>\n<tr>\n<td>神話階層</td>\n<td>道途特性</td>\n</tr>\n<tr>\n<td>1階</td>\n<td>守護呼聲, 道途能力</td>\n</tr>\n<tr>\n<td>2nd</td>\n<td>道途能力</td>\n</tr>\n<tr>\n<td>3階</td>\n<td>道途能力</td>\n</tr>\n<tr>\n<td>4階</td>\n<td>道途能力</td>\n</tr>\n<tr>\n<td>5階</td>\n<td>道途能力</td>\n</tr>\n<tr>\n<td>6階</td>\n<td>道途能力</td>\n</tr>\n<tr>\n<td>7階</td>\n<td>道途能力</td>\n</tr>\n<tr>\n<td>8階</td>\n<td>道途能力</td>\n</tr>\n<tr>\n<td>9階</td>\n<td>道途能力</td>\n</tr>\n<tr>\n<td>10階</td>\n<td>道途能力, 完美防禦</td>\n</tr>\n</tbody>\n</table>\n</div>\n<p>隨著你的階層獲得提升，你會獲得後述能力。<br><br>守護呼聲（Guardian's Call）：從後述能力中選擇一種。一旦做出選擇就無法進行更改。<br><br>吸收衝擊（Absorb Blow，Ex）：以直覺動作，每當你由於單一來源而承受生命值傷害時（比如龍的噴吐武器、法術或武器），你能夠花費1次神話之力，以此來將該來源的傷害降低每階層5點（最低受到0點傷害）。若你具有其他降低傷害的能力或效果（比如防護能量傷害），那麼在應用其他降低傷害的效果之前，首先使用吸收衝擊能力降低傷害。該能力防止的每10點傷害，都會在1分鐘內賦予你DR 1/傳奇與5點對抗強酸、寒冷、閃電、火焰、音波傷害的抗力。這些DR與抗力會與你所具有的任何其他DR和抗力疊加。<br><br>狂獸之怒（Beast's Fury，Ex）：以迅捷動作，你能夠花費1次神話之力，將自己的神話力量灌入你的動物夥伴、部屬、幻靈、魔寵、或者神契坐騎體內。以直覺動作，該生物能夠移動至多等同於自身速度的距離，並且使用自身的一個天生武器進行單次攻擊。當它進行此次攻擊時，該名生物擲兩次並取較高的結果。此次攻擊所造成的傷害能穿透任何傷害減免。被該能力影響的生物所作出的這些動作不會算在它的回合內其他可以做的動作範疇之內。<br><br>即刻擋格（Sudden Block，Ex）：以直覺動作，你能夠花費1次神話之力，以此來妨礙一次對抗你或者一名相鄰盟友的近戰攻擊。將你的階層加到你的AC或者盟友的AC之上，來對抗此次攻擊。進行此次攻擊的生物必須進行兩次攻擊檢定並且取較低的結果。一旦攻擊被處理完，你或者你的盟友（由你選擇）能夠進行一次近戰攻擊對抗該名生物。此次攻擊所造成的傷害能穿透任何傷害減免。<br><br>道途能力: 1級以及之後的每個神話階層，你都能從守護者道途能力或者通用道途能力中選擇1項新的道途能力。一旦你做出選擇，便無法更改。除非另有說明，否則每個能力都只能選取1次。部分能力有先決條件，比如職業能力或者最低神話階層，你必須滿足這些先決條件才能選取它們。<br><br>完美防禦（True Defender，Su）：在第10階，每當你受到來源於非神話生物的遠程或近戰攻擊並且受到傷害的話，傷害均會減半。這個傷害減半會在所有其他降低傷害的能力或效果之後應用，比如能量抗力或者傷害減免。每輪1次，當1個敵人對你造成重擊時，你會恢復1次神話之力。</p>"
		},
		{
			"id": "(Mythic) Hierophant",
			"name": "(神話) 聖者（(Mythic) Hierophant）",
			"description": "<p>這些諸神之力的使用者漸漸發現自身越來越成為自身所信仰的存在。有些人渴望成為神祇的不朽侍從，而另一些人則希望登上神壇。聖者則是這些人中的一員，她直接或間接地引導著神之力——無論是來自神祇、自然之靈還是生命之力本身——並且最終會化身為神聖之力的提供者，而非單純的信徒。<br /><br />定位（Role）：作為聖者，你在隊伍中的職責就是與神祇溝通的橋梁、通過你所獲得的神跡治愈並且救助你的盟友。若你是大自然的僕從，那麼這股力量會變得十分強勁，你可以利用這個道途中的能力守護荒野，並將它的狂怒帶給那些膽敢褻瀆自然的人。<br /><br />職業（Classes）：任何利用神術的職業都能夠從聖者之道中獲益——尤其對於牧師、德魯伊和先知來說。即便只有有限的神術能力，比如審判者與聖武士，也能夠在這個道途中找到不少有效的選項。<br /><br />獎勵生命值（Bonus Hit Points）：每當你在聖者之道中獲得階層，你會得到4點獎勵生命值。這些生命值會疊加，而且不會影響你的生命骰或者其他能力。</p>\n<h2>道途特性</h2>\n<div>\n<table>\n<tbody>\n<tr>\n<td>神話階層</td>\n<td>道途特性</td>\n</tr>\n<tr>\n<td>1階</td>\n<td>神力澎湃, 道途能力</td>\n</tr>\n<tr>\n<td>2nd</td>\n<td>道途能力</td>\n</tr>\n<tr>\n<td>3階</td>\n<td>道途能力</td>\n</tr>\n<tr>\n<td>4階</td>\n<td>道途能力</td>\n</tr>\n<tr>\n<td>5階</td>\n<td>道途能力</td>\n</tr>\n<tr>\n<td>6階</td>\n<td>道途能力</td>\n</tr>\n<tr>\n<td>7階</td>\n<td>道途能力</td>\n</tr>\n<tr>\n<td>8階</td>\n<td>道途能力</td>\n</tr>\n<tr>\n<td>9階</td>\n<td>道途能力</td>\n</tr>\n<tr>\n<td>10階</td>\n<td>神性化身, 道途能力</td>\n</tr>\n</tbody>\n</table>\n</div>\n<p>隨著你的階層獲得提升，你會獲得後述能力。<br /><br />神力澎湃（Divine Surge）：從後述能力中選擇一種。一旦做出選擇就無法進行更改。<br /><br />狂獸之怒（Beast's Fury，Su）：以迅捷動作，你能夠花費1次神話之力，將自己的神話力量灌入你的動物夥伴、部屬、幻靈、魔寵、或者神契坐騎體內。以直覺動作，該生物能夠移動至多等同於自身速度的距離，並且使用自身的一個天生武器進行單次攻擊。當它進行此次攻擊時，該名生物擲兩次並取較高的結果。此次攻擊所造成的傷害能穿透任何傷害減免。被該能力影響的生物所作出的這些動作不會算在它的回合內其他可以做的動作範疇之內。<br /><br />靈性咒法（Inspired Spell，Su）：你能夠花費1次神話之力施放任何1個神術，並視為你的施法者等級比正常高2級。該法術必須在你的神術列表內（或者你的領域或秘示域法術列表中），而且法術等級必須是你所具有的神術施法職業所能夠施展的等級。若你是自發施法者，那麼你不需要事先準備該法術，這個法術也不需要在你的已知法術列表中。使用該能力不會消耗已準備的法術或者可用的法術位。你能夠將任何自身已知的超魔專長應用到法術上，但是總的法術位等級必須為你正常能夠施放的等級。<br /><br />回返祝福（Recalled Blessing，Su）：你能夠花費1次神話之力來施放1個神術，而不需要消耗已經準備的法術或法術位。如你是準備施法者，該法術就必須是你在當天已經準備法術之一；若你是自發施法者，該法術就必須是你的已知法術。你無法將任何超魔專長應用至該法術上。若法術需要豁免，非神話生物則要投擲兩次並取較低的結果。若法術治療傷害、或者為了治愈苦難（affliction）或者移除狀態而需要你嘗試施法者等級檢定的話，投擲兩次並取較高的結果。<br /><br />道途能力:1級以及之後的每個神話階層，你都能從聖者道途能力或者通用道途能力中選擇1項新的道途能力。一旦你做出選擇，便無法更改。除非另有說明，否則每個能力都只能選取1次。部分能力有先決條件，比如職業能力或者最低神話階層，你必須滿足這些先決條件才能選取它們。<br /><br />神性化身（Divine Vessel，Ex）：在第10階，每當你施放以1個或更多個非神話生物為目標的法術時，這些生物在進行這個法術相關的任何豁免時必須投擲兩次並取較低的結果。每當你以法術或效果治療生命值傷害時，你的治愈效果都能治愈最大數額的傷害。你還會獲得DR 10/傳奇。每輪1次，當你受到超過20點的傷害時（在應用傷害減免之後），你會恢復1次神話之力的使用次數。</p>"
		},
		{
			"id": "(Mythic) Marshal",
			"name": "(神話) 統帥（(Mythic) Marshal）",
			"description": "<p>有些人命中註定不光會實現自身的榮耀，還能夠鼓舞軍隊、激勵敗者、並且喚起追隨者們最大限度的力量。統帥就是這樣的領袖，他的遠見、勇氣以及在戰略方面的洞察力讓自己聲名顯赫。士兵們為了追隨這樣的指揮官而集結在統帥的旗幟之下，相信他的能力能夠帶領眾人挺過最艱難的挑戰。<br /><br />定位（Role）：作為統帥，你的能力能夠激發非神話與非神話盟友，使得他們一樣強大。在團隊中，你能夠保護盟友，並且推動他們做出更具英雄主義的行為。統帥的力量自始至終都會讓你帶領隊伍，幫助同伴，並且對抗你們的敵人。<br /><br />職業（Classes）：吟遊詩人、騎士、牧師、審判者以及聖武士會在統帥之道中找到許多有效的能力。實際上，幾乎任何能夠協助他人——無論戰前戰後——的角色都會同樣發現，在統帥之道中有不少有價值的能力能夠輔助她們成就高尚的事業。<br /><br />獎勵生命值（Bonus Hit Points）：每當你在統帥之道中獲得階層，你會得到4點獎勵生命值。這些生命值會疊加，而且不會影響你的生命骰或者其他能力。</p>\n<h2>道途特性</h2>\n<div>\n<table>\n<tbody>\n<tr>\n<td>神話階層</td>\n<td>道途特性</td>\n</tr>\n<tr>\n<td>1階</td>\n<td>統帥之令, 道途能力</td>\n</tr>\n<tr>\n<td>2nd</td>\n<td>道途能力</td>\n</tr>\n<tr>\n<td>3階</td>\n<td>道途能力</td>\n</tr>\n<tr>\n<td>4階</td>\n<td>道途能力</td>\n</tr>\n<tr>\n<td>5階</td>\n<td>道途能力</td>\n</tr>\n<tr>\n<td>6階</td>\n<td>道途能力</td>\n</tr>\n<tr>\n<td>7階</td>\n<td>道途能力</td>\n</tr>\n<tr>\n<td>8階</td>\n<td>道途能力</td>\n</tr>\n<tr>\n<td>9階</td>\n<td>道途能力</td>\n</tr>\n<tr>\n<td>10階</td>\n<td>道途能力, 遠見指揮官</td>\n</tr>\n</tbody>\n</table>\n</div>\n<p>隨著你的階層獲得提升，你會獲得後述能力。<br /><br />統帥之令（Marshal's Order）：從後述能力中選擇一種。一旦做出選擇就無法進行更改。<br /><br />推進（Advance，Ex）：以迅捷動作，你能夠花費1次神話之力，以此在戰場上獲得戰術優勢。這使得你和所有距你30尺內的盟友進行1次單移動動作或者五尺快步，由角色自行選擇，不過你和你的盟友必須有能力進行這些動作才能如此行動（例如：失去意識的角色仍舊無法進行任何動作）。由此能力賦予的動作不會算在這些生物在其自身的回合內可以做的動作類型或數量範疇之內。<br /><br />果斷出擊（Decisive Strike，Su）：以迅捷動作，你能夠花費1次神話之力，以此賦予30尺內的1名盟友立即在你的回合內進行1次近戰或遠程攻擊的能力。將你的階層作為加值加到他的攻擊檢定上。此次攻擊所造成的傷害能穿透任何傷害減免。這不會算作該名盟友在該輪做出的任何其他攻擊範疇之內。<br /><br />重整旗鼓（Rally，Su）：以迅捷動作，你能夠花費1次神話之力來使盟友重新振作起來。這會賦予你以及距你30尺內的每名盟友在1次d20檢定後進行重擲的能力。你所賦予的重擲必須在你的下一回合開始之前使用，而且這些生物必須接受重擲的結果，即便結果更低。<br /><br />道途能力:1級以及之後的每個神話階層，你都能從統帥道途能力或者通用道途能力中選擇1項新的道途能力。一旦你做出選擇，便無法更改。除非另有說明，否則每個能力都只能選取1次。部分能力有先決條件，比如職業能力或者最低神話階層，你必須滿足這些先決條件才能選取它們。<br /><br />遠見指揮官（Visionary Commander，Su）：在第10階，每當你或30尺內的盟友進行先攻檢定時，擲兩次並取任意一個結果。若戰鬥的第一輪是突襲輪，你和距你30尺內的盟友能在戰鬥開始時進行完整的動作而非原本的1個移動或標準動作。每輪1次，當你或30尺內的1名盟友在對抗神話生物時造成重擊（scores a critical hit）的話，你能夠恢復1次神話之力的使用次數。</p>"
		},
		{
			"id": "(Mythic) Trickster",
			"name": "(神話) 詭術大師（(Mythic) Trickster）",
			"description": "<p>只有希望自己被他人察覺的時候，詭術大師的身影才會顯露在世人面前，在詭術大師的操弄之下，王子與平民別無二致，它們都無法察覺到自身受到了他人的影響。希望利用自身的技能與才智的角色會感覺到詭術大師之道十分適合他們。這些英雄的神話力量使他們能夠完成在別人眼中不可能完成的任務。他們能夠攀上任何一面墻壁、在最湍急的水流中潛泳、還能夠在最為敏銳的守衛身邊悄然經過。而他們對敵人的打擊通常都具有無人能比的精度。<br /><br />定位（Role）：作為詭術大師，你在隊伍中的作用是那名操縱他人並且使用詭計的人。你能獲得許多操縱敵人的能力——無論是肉體還是精神上。通過一個笑話或是一句短語，你就能夠操縱整個城市、甚至是整個國家按照你的想法行事——但如果你失手了，你也總是能夠指望著藏匿於陰影中的利刃解決問題。<br /><br />職業（Classes）：許多依賴於技能的職業都很適合成為詭術大師，而那些嚴重依賴遠程攻擊和魔法花招的職業也是如此。煉金術士、吟遊詩人和盜賊都會在詭術大師找到符合自身的能力。銃士、武僧與游俠也能夠在詭術大師之道中發現一些適合自身的選項。<br /><br />獎勵生命值（Bonus Hit Points）：每當你在詭術大師之道中獲得階層，你會得到4點獎勵生命值。這些生命值會疊加，而且不會影響你的生命骰或者其他能力。</p>\n<h2>道途特性</h2>\n<div>\n<table>\n<tbody>\n<tr>\n<td>神話階層</td>\n<td>道途特性</td>\n</tr>\n<tr>\n<td>1階</td>\n<td>道途能力, 奇襲</td>\n</tr>\n<tr>\n<td>2nd</td>\n<td>道途能力</td>\n</tr>\n<tr>\n<td>3階</td>\n<td>道途能力</td>\n</tr>\n<tr>\n<td>4階</td>\n<td>道途能力</td>\n</tr>\n<tr>\n<td>5階</td>\n<td>道途能力</td>\n</tr>\n<tr>\n<td>6階</td>\n<td>道途能力</td>\n</tr>\n<tr>\n<td>7階</td>\n<td>道途能力</td>\n</tr>\n<tr>\n<td>8階</td>\n<td>道途能力</td>\n</tr>\n<tr>\n<td>9階</td>\n<td>道途能力</td>\n</tr>\n<tr>\n<td>10階</td>\n<td>道途能力, 至高詭術師</td>\n</tr>\n</tbody>\n</table>\n</div>\n<p>隨著你的階層獲得提升，你會獲得後述能力。<br /><br />奇襲（Trickster Attack）：從後述能力中選擇一種。一旦做出選擇就無法進行更改。<br /><br />致命投擲（Deadly Throw，Ex）：以迅捷動作，你能夠花費1次神話之力，取出1個投擲武器或者煉金物品（alchemical item）並使用它進行遠程攻擊。此次攻擊不會引起藉機攻擊。當你進行致命投擲時，投擲兩次攻擊檢定，取較高的結果，並且將你的階層加到檢定上。若攻擊失手，武器或者煉金物品會落在與目標相鄰的位置，無論其本身的射程如何。<br /><br />飛掠衝刺（Fleet Charge，Ex）：以迅捷動作，你能夠花費1次神話之力並進行移動，移動距離最多與你的速度相同。在這次移動中的任意一點，你能夠以最高的攻擊加值進行一次近戰或遠程攻擊，並將你的階層加到攻擊檢定上。此次攻擊不算在你在本輪做出的任何其他攻擊之內。此次攻擊所造成的傷害能穿透任何傷害減免。<br /><br />突襲（Surprise Strike，Ex）：以迅捷動作，你能夠花費1次神話之力來進行1次近戰或遠程攻擊，用於對抗30尺內的1名目標，此次攻擊不算在你在本輪做出的任何其他攻擊之內。當你進行突襲時，無論目標可能具有的任何職業特性或者能力，它都會被視為措手不及，除此之外，將你的階層加到攻擊檢定上。此次攻擊所造成的傷害能穿透任何傷害減免。<br /><br />道途能力:1級以及之後的每個神話階層，你都能從詭術大師道途能力或者通用道途能力中選擇1項新的道途能力。一旦你做出選擇，便無法更改。除非另有說明，否則每個能力都只能選取1次。部分能力有先決條件，比如職業能力或者最低神話階層，你必須滿足這些先決條件才能選取它們。<br /><br />至尊詭術師（Supreme Trickster，Su）：在第10階，每當你對抗非神話敵人進行攻擊檢定時，該名敵人都會被視為措手不及，即便它具有能夠防止自身措手不及的能力也是如此。每輪1次，每當你在對抗神話敵人的技能對抗檢定（opposed skill check）中投擲出自然20時，你會恢復1次神話之力的使用次數。</p>"
		}
	]
}